data/week3/נתק.csv

Record Length,10000,Points,33.24000165E-3,-4.19999985E-3,,Record Length,10000,Points,33.24000165E-3,-1.1999999E-3,
Sample Interval,39.99999976E-9,s,33.24004263E-3,2.6000000E-3,,Sample Interval,39.99999976E-9,s,33.24004263E-3,399.99998990E-6,
Trigger Point,-831.000085737E3,Samples,33.24007988E-3,199.99999495E-6,,Trigger Point,-831.000085737E3,Samples,33.24007988E-3,799.999979790E-6,
,,,33.24012086E-3,-5.39999967E-3,,,,,33.24012086E-3,-799.999979790E-6,
,,,33.24016184E-3,-199.99999495E-6,,,,,33.24016184E-3,-1.1999999E-3,
,,,33.24020281E-3,2.6000000E-3,,,,,33.24020281E-3,0.0,
Source,CH1,,33.24024007E-3,-599.999970291E-6,,Source,CH2,,33.24024007E-3,0.0,
Vertical Units,V,,33.24028105E-3,-1.8000000E-3,,Vertical Units,V,,33.24028105E-3,399.99998990E-6,
Vertical Scale,9.999999747E-3,,33.24032202E-3,-999.999931082E-6,,Vertical Scale,9.999999747E-3,,33.24032202E-3,799.999979790E-6,
Vertical Offset,0,,33.24036300E-3,1.4000000E-3,,Vertical Offset,0,,33.24036300E-3,-399.99998990E-6,
Horizontal Units,s,,33.24040025E-3,-599.999970291E-6,,Horizontal Units,s,,33.24040025E-3,-799.999979790E-6,
Horizontal Scale,39.99999976E-6,,33.24044123E-3,-999.999931082E-6,,Horizontal Scale,39.99999976E-6,,33.24044123E-3,-399.99998990E-6,
Pt Fmt,Y,,33.24048221E-3,2.2000000E-3,,Pt Fmt,Y,,33.24048221E-3,2.3999999E-3,
Yzero,2.4600000,,33.24052319E-3,-2.2000000E-3,,Yzero,-2.1200000,,33.24052319E-3,-399.99998990E-6,
Probe Atten,1.000000,,33.24056044E-3,-3.79999983E-3,,Probe Atten,1.000000,,33.24056044E-3,-1.9999999E-3,
,,,33.24060142E-3,6.59999996E-3,,,,,33.24060142E-3,1.1999999E-3,
Note,DPO3014 - 15:29:30   26-May-22,,33.24064240E-3,2.2000000E-3,,Note,DPO3014 - 15:29:30   26-May-22,,33.24064240E-3,1.1999999E-3,
,,,33.24068338E-3,-3.39999981E-3,,,,,33.24068338E-3,-799.999979790E-6,
,,,33.24072063E-3,199.99999495E-6,,,,,33.24072063E-3,399.99998990E-6,
,,,33.24076161E-3,199.99999495E-6,,,,,33.24076161E-3,-799.999979790E-6,
,,,33.24080259E-3,599.999970291E-6,,,,,33.24080259E-3,0.0,
,,,33.24083984E-3,-599.999970291E-6,,,,,33.24083984E-3,0.0,
,,,33.24088082E-3,599.999970291E-6,,,,,33.24088082E-3,0.0,
,,,33.24092180E-3,-599.999970291E-6,,,,,33.24092180E-3,0.0,
,,,33.24096277E-3,-4.19999985E-3,,,,,33.24096277E-3,-799.999979790E-6,
,,,33.24100003E-3,199.99999495E-6,,,,,33.24100003E-3,0.0,
,,,33.24104100E-3,4.19999985E-3,,,,,33.24104100E-3,399.99998990E-6,
,,,33.24108198E-3,-3.79999983E-3,,,,,33.24108198E-3,399.99998990E-6,
,,,33.24112296E-3,-3.00000003E-3,,,,,33.24112296E-3,-399.99998990E-6,
,,,33.24116021E-3,1.4000000E-3,,,,,33.24116021E-3,399.99998990E-6,
,,,33.24120119E-3,-999.999931082E-6,,,,,33.24120119E-3,-399.99998990E-6,
,,,33.24124217E-3,-1.4000000E-3,,,,,33.24124217E-3,-399.99998990E-6,
,,,33.24128315E-3,-999.999931082E-6,,,,,33.24128315E-3,0.0,
,,,33.24132040E-3,-599.999970291E-6,,,,,33.24132040E-3,-799.999979790E-6,
,,,33.24136138E-3,-2.2000000E-3,,,,,33.24136138E-3,799.999979790E-6,
,,,33.24140236E-3,-3.00000003E-3,,,,,33.24140236E-3,0.0,
,,,33.24144334E-3,4.19999985E-3,,,,,33.24144334E-3,0.0,
,,,33.24148059E-3,1.8000000E-3,,,,,33.24148059E-3,1.1999999E-3,
,,,33.24152157E-3,-5.39999967E-3,,,,,33.24152157E-3,-1.1999999E-3,
,,,33.24156255E-3,1.8000000E-3,,,,,33.24156255E-3,399.99998990E-6,
,,,33.24159980E-3,4.60000010E-3,,,,,33.24159980E-3,0.0,
,,,33.24164078E-3,-199.99999495E-6,,,,,33.24164078E-3,0.0,
,,,33.24168175E-3,999.999931082E-6,,,,,33.24168175E-3,799.999979790E-6,
,,,33.24172273E-3,-199.99999495E-6,,,,,33.24172273E-3,-799.999979790E-6,
,,,33.24175999E-3,999.999931082E-6,,,,,33.24175999E-3,0.0,
,,,33.24180096E-3,599.999970291E-6,,,,,33.24180096E-3,0.0,
,,,33.24184194E-3,-1.8000000E-3,,,,,33.24184194E-3,-3.19999992E-3,
,,,33.24188292E-3,2.6000000E-3,,,,,33.24188292E-3,399.99998990E-6,
,,,33.24192017E-3,-1.8000000E-3,,,,,33.24192017E-3,799.999979790E-6,
,,,33.24196115E-3,-3.39999981E-3,,,,,33.24196115E-3,-1.1999999E-3,
,,,33.24200213E-3,3.79999983E-3,,,,,33.24200213E-3,799.999979790E-6,
,,,33.24204311E-3,599.999970291E-6,,,,,33.24204311E-3,399.99998990E-6,
,,,33.24208036E-3,-4.99999989E-3,,,,,33.24208036E-3,-399.99998990E-6,
,,,33.24212134E-3,599.999970291E-6,,,,,33.24212134E-3,0.0,
,,,33.24216232E-3,-599.999970291E-6,,,,,33.24216232E-3,-399.99998990E-6,
,,,33.24220330E-3,-2.6000000E-3,,,,,33.24220330E-3,-1.1999999E-3,
,,,33.24224055E-3,599.999970291E-6,,,,,33.24224055E-3,799.999979790E-6,
,,,33.24228153E-3,-199.99999495E-6,,,,,33.24228153E-3,0.0,
,,,33.24232250E-3,-199.99999495E-6,,,,,33.24232250E-3,799.999979790E-6,
,,,33.24236348E-3,-4.60000010E-3,,,,,33.24236348E-3,-399.99998990E-6,
,,,33.24240074E-3,599.999970291E-6,,,,,33.24240074E-3,-799.999979790E-6,
,,,33.24244171E-3,4.60000010E-3,,,,,33.24244171E-3,799.999979790E-6,
,,,33.24248269E-3,-4.19999985E-3,,,,,33.24248269E-3,-399.99998990E-6,
,,,33.24251994E-3,-3.00000003E-3,,,,,33.24251994E-3,-1.1999999E-3,
,,,33.24256092E-3,3.79999983E-3,,,,,33.24256092E-3,1.1999999E-3,
,,,33.24260190E-3,-1.8000000E-3,,,,,33.24260190E-3,-399.99998990E-6,
,,,33.24264288E-3,199.99999495E-6,,,,,33.24264288E-3,-399.99998990E-6,
,,,33.24268013E-3,2.6000000E-3,,,,,33.24268013E-3,1.1999999E-3,
,,,33.24272111E-3,-1.4000000E-3,,,,,33.24272111E-3,-799.999979790E-6,
,,,33.24276209E-3,-599.999970291E-6,,,,,33.24276209E-3,-399.99998990E-6,
,,,33.24280307E-3,1.8000000E-3,,,,,33.24280307E-3,0.0,
,,,33.24284032E-3,3.00000003E-3,,,,,33.24284032E-3,399.99998990E-6,
,,,33.24288130E-3,1.8000000E-3,,,,,33.24288130E-3,1.1999999E-3,
,,,33.24292228E-3,-4.60000010E-3,,,,,33.24292228E-3,-1.9999999E-3,
,,,33.24296325E-3,999.999931082E-6,,,,,33.24296325E-3,-799.999979790E-6,
,,,33.24300051E-3,1.8000000E-3,,,,,33.24300051E-3,799.999979790E-6,
,,,33.24304149E-3,-3.00000003E-3,,,,,33.24304149E-3,-799.999979790E-6,
,,,33.24308246E-3,-999.999931082E-6,,,,,33.24308246E-3,-799.999979790E-6,
,,,33.24312344E-3,999.999931082E-6,,,,,33.24312344E-3,399.99998990E-6,
,,,33.24316069E-3,-2.6000000E-3,,,,,33.24316069E-3,-799.999979790E-6,
,,,33.24320167E-3,-199.99999495E-6,,,,,33.24320167E-3,399.99998990E-6,
,,,33.24324265E-3,1.8000000E-3,,,,,33.24324265E-3,-399.99998990E-6,
,,,33.24327990E-3,599.999970291E-6,,,,,33.24327990E-3,399.99998990E-6,
,,,33.24332088E-3,-3.39999981E-3,,,,,33.24332088E-3,0.0,
,,,33.24336186E-3,-999.999931082E-6,,,,,33.24336186E-3,-399.99998990E-6,
,,,33.24340284E-3,5.39999967E-3,,,,,33.24340284E-3,799.999979790E-6,
,,,33.24344009E-3,599.999970291E-6,,,,,33.24344009E-3,0.0,
,,,33.24348107E-3,-4.19999985E-3,,,,,33.24348107E-3,0.0,
,,,33.24352205E-3,3.00000003E-3,,,,,33.24352205E-3,799.999979790E-6,
,,,33.24356303E-3,999.999931082E-6,,,,,33.24356303E-3,799.999979790E-6,
,,,33.24360028E-3,-2.6000000E-3,,,,,33.24360028E-3,399.99998990E-6,
,,,33.24364126E-3,4.19999985E-3,,,,,33.24364126E-3,1.1999999E-3,
,,,33.24368224E-3,999.999931082E-6,,,,,33.24368224E-3,799.999979790E-6,
,,,33.24372321E-3,-3.39999981E-3,,,,,33.24372321E-3,-799.999979790E-6,
,,,33.24376047E-3,-1.4000000E-3,,,,,33.24376047E-3,-799.999979790E-6,
,,,33.24380144E-3,999.999931082E-6,,,,,33.24380144E-3,-399.99998990E-6,
,,,33.24384242E-3,2.2000000E-3,,,,,33.24384242E-3,1.1999999E-3,
,,,33.24388340E-3,-3.39999981E-3,,,,,33.24388340E-3,0.0,
,,,33.24392065E-3,-3.00000003E-3,,,,,33.24392065E-3,-1.9999999E-3,
,,,33.24396163E-3,2.6000000E-3,,,,,33.24396163E-3,399.99998990E-6,
,,,33.24400261E-3,-2.6000000E-3,,,,,33.24400261E-3,0.0,
,,,33.24403986E-3,-999.999931082E-6,,,,,33.24403986E-3,0.0,
,,,33.24408084E-3,3.39999981E-3,,,,,33.24408084E-3,1.1999999E-3,
,,,33.24412182E-3,-4.19999985E-3,,,,,33.24412182E-3,399.99998990E-6,
,,,33.24416280E-3,-3.00000003E-3,,,,,33.24416280E-3,-799.999979790E-6,
,,,33.24420005E-3,999.999931082E-6,,,,,33.24420005E-3,-399.99998990E-6,
,,,33.24424103E-3,1.8000000E-3,,,,,33.24424103E-3,0.0,
,,,33.24428201E-3,-1.8000000E-3,,,,,33.24428201E-3,399.99998990E-6,
,,,33.24432299E-3,-2.6000000E-3,,,,,33.24432299E-3,0.0,
,,,33.24436024E-3,999.999931082E-6,,,,,33.24436024E-3,-399.99998990E-6,
,,,33.24440122E-3,3.00000003E-3,,,,,33.24440122E-3,0.0,
,,,33.24444219E-3,-2.2000000E-3,,,,,33.24444219E-3,-1.1999999E-3,
,,,33.24448317E-3,999.999931082E-6,,,,,33.24448317E-3,-399.99998990E-6,
,,,33.24452043E-3,1.4000000E-3,,,,,33.24452043E-3,1.1999999E-3,
,,,33.24456140E-3,-4.19999985E-3,,,,,33.24456140E-3,-799.999979790E-6,
,,,33.24460238E-3,2.2000000E-3,,,,,33.24460238E-3,-799.999979790E-6,
,,,33.24464336E-3,5.39999967E-3,,,,,33.24464336E-3,799.999979790E-6,
,,,33.24468061E-3,-1.4000000E-3,,,,,33.24468061E-3,-799.999979790E-6,
,,,33.24472159E-3,-1.8000000E-3,,,,,33.24472159E-3,-799.999979790E-6,
,,,33.24476257E-3,199.99999495E-6,,,,,33.24476257E-3,-799.999979790E-6,
,,,33.24479982E-3,1.4000000E-3,,,,,33.24479982E-3,-799.999979790E-6,
,,,33.24484080E-3,599.999970291E-6,,,,,33.24484080E-3,399.99998990E-6,
,,,33.24488178E-3,-1.4000000E-3,,,,,33.24488178E-3,-799.999979790E-6,
,,,33.24492276E-3,1.8000000E-3,,,,,33.24492276E-3,0.0,
,,,33.24496001E-3,-1.8000000E-3,,,,,33.24496001E-3,-399.99998990E-6,
,,,33.24500099E-3,-3.00000003E-3,,,,,33.24500099E-3,-1.6000000E-3,
,,,33.24504197E-3,2.6000000E-3,,,,,33.24504197E-3,0.0,
,,,33.24508294E-3,599.999970291E-6,,,,,33.24508294E-3,1.1999999E-3,
,,,33.24512020E-3,-5.39999967E-3,,,,,33.24512020E-3,-1.6000000E-3,
,,,33.24516118E-3,-999.999931082E-6,,,,,33.24516118E-3,399.99998990E-6,
,,,33.24520215E-3,1.8000000E-3,,,,,33.24520215E-3,799.999979790E-6,
,,,33.24524313E-3,-999.999931082E-6,,,,,33.24524313E-3,399.99998990E-6,
,,,33.24528039E-3,-2.2000000E-3,,,,,33.24528039E-3,799.999979790E-6,
,,,33.24532136E-3,-199.99999495E-6,,,,,33.24532136E-3,-799.999979790E-6,
,,,33.24536234E-3,1.4000000E-3,,,,,33.24536234E-3,-799.999979790E-6,
,,,33.24540332E-3,-2.2000000E-3,,,,,33.24540332E-3,0.0,
,,,33.24544057E-3,-199.99999495E-6,,,,,33.24544057E-3,-399.99998990E-6,
,,,33.24548155E-3,4.19999985E-3,,,,,33.24548155E-3,799.999979790E-6,
,,,33.24552253E-3,-3.79999983E-3,,,,,33.24552253E-3,-799.999979790E-6,
,,,33.24556351E-3,-3.00000003E-3,,,,,33.24556351E-3,-1.1999999E-3,
,,,33.24560076E-3,4.99999989E-3,,,,,33.24560076E-3,399.99998990E-6,
,,,33.24564174E-3,999.999931082E-6,,,,,33.24564174E-3,399.99998990E-6,
,,,33.24568272E-3,-3.00000003E-3,,,,,33.24568272E-3,-799.999979790E-6,
,,,33.24571997E-3,-199.99999495E-6,,,,,33.24571997E-3,0.0,
,,,33.24576095E-3,-999.999931082E-6,,,,,33.24576095E-3,-1.6000000E-3,
,,,33.24580193E-3,-599.999970291E-6,,,,,33.24580193E-3,-1.6000000E-3,
,,,33.24584290E-3,999.999931082E-6,,,,,33.24584290E-3,0.0,
,,,33.24588016E-3,599.999970291E-6,,,,,33.24588016E-3,-799.999979790E-6,
,,,33.24592113E-3,999.999931082E-6,,,,,33.24592113E-3,799.999979790E-6,
,,,33.24596211E-3,-3.39999981E-3,,,,,33.24596211E-3,-799.999979790E-6,
,,,33.24600309E-3,-199.99999495E-6,,,,,33.24600309E-3,-399.99998990E-6,
,,,33.24604034E-3,4.99999989E-3,,,,,33.24604034E-3,1.6000000E-3,
,,,33.24608132E-3,-3.79999983E-3,,,,,33.24608132E-3,799.999979790E-6,
,,,33.24612230E-3,-3.39999981E-3,,,,,33.24612230E-3,-1.6000000E-3,
,,,33.24616328E-3,2.6000000E-3,,,,,33.24616328E-3,1.1999999E-3,
,,,33.24620053E-3,-999.999931082E-6,,,,,33.24620053E-3,-799.999979790E-6,
,,,33.24624151E-3,-1.4000000E-3,,,,,33.24624151E-3,-799.999979790E-6,
,,,33.24628249E-3,-599.999970291E-6,,,,,33.24628249E-3,0.0,
,,,33.24632347E-3,199.99999495E-6,,,,,33.24632347E-3,799.999979790E-6,
,,,33.24636072E-3,-1.4000000E-3,,,,,33.24636072E-3,399.99998990E-6,
,,,33.24640170E-3,-2.2000000E-3,,,,,33.24640170E-3,-1.1999999E-3,
,,,33.24644268E-3,4.19999985E-3,,,,,33.24644268E-3,399.99998990E-6,
,,,33.24647993E-3,999.999931082E-6,,,,,33.24647993E-3,399.99998990E-6,
,,,33.24652091E-3,-5.79999993E-3,,,,,33.24652091E-3,-799.999979790E-6,
,,,33.24656188E-3,1.4000000E-3,,,,,33.24656188E-3,-399.99998990E-6,
,,,33.24660286E-3,4.60000010E-3,,,,,33.24660286E-3,1.1999999E-3,
,,,33.24664012E-3,-1.4000000E-3,,,,,33.24664012E-3,-399.99998990E-6,
,,,33.24668109E-3,599.999970291E-6,,,,,33.24668109E-3,799.999979790E-6,
,,,33.24672207E-3,-199.99999495E-6,,,,,33.24672207E-3,-399.99998990E-6,
,,,33.24676305E-3,-1.4000000E-3,,,,,33.24676305E-3,-799.999979790E-6,
,,,33.24680030E-3,-599.999970291E-6,,,,,33.24680030E-3,399.99998990E-6,
,,,33.24684128E-3,999.999931082E-6,,,,,33.24684128E-3,-399.99998990E-6,
,,,33.24688226E-3,2.2000000E-3,,,,,33.24688226E-3,799.999979790E-6,
,,,33.24692324E-3,-3.00000003E-3,,,,,33.24692324E-3,399.99998990E-6,
,,,33.24696049E-3,-4.60000010E-3,,,,,33.24696049E-3,-1.9999999E-3,
,,,33.24700147E-3,3.79999983E-3,,,,,33.24700147E-3,399.99998990E-6,
,,,33.24704245E-3,-599.999970291E-6,,,,,33.24704245E-3,0.0,
,,,33.24708343E-3,-5.39999967E-3,,,,,33.24708343E-3,-1.1999999E-3,
,,,33.24712068E-3,999.999931082E-6,,,,,33.24712068E-3,799.999979790E-6,
,,,33.24716166E-3,-999.999931082E-6,,,,,33.24716166E-3,-799.999979790E-6,
,,,33.24720263E-3,-3.39999981E-3,,,,,33.24720263E-3,-1.6000000E-3,
,,,33.24723989E-3,1.4000000E-3,,,,,33.24723989E-3,0.0,
,,,33.24728087E-3,199.99999495E-6,,,,,33.24728087E-3,0.0,
,,,33.24732184E-3,-999.999931082E-6,,,,,33.24732184E-3,399.99998990E-6,
,,,33.24736282E-3,-3.00000003E-3,,,,,33.24736282E-3,-799.999979790E-6,
,,,33.24740008E-3,599.999970291E-6,,,,,33.24740008E-3,-799.999979790E-6,
,,,33.24744105E-3,4.19999985E-3,,,,,33.24744105E-3,1.1999999E-3,
,,,33.24748203E-3,-3.00000003E-3,,,,,33.24748203E-3,-799.999979790E-6,
,,,33.24752301E-3,-999.999931082E-6,,,,,33.24752301E-3,-799.999979790E-6,
,,,33.24756026E-3,4.19999985E-3,,,,,33.24756026E-3,1.1999999E-3,
,,,33.24760124E-3,-599.999970291E-6,,,,,33.24760124E-3,-1.1999999E-3,
,,,33.24764222E-3,1.8000000E-3,,,,,33.24764222E-3,0.0,
,,,33.24768320E-3,2.6000000E-3,,,,,33.24768320E-3,799.999979790E-6,
,,,33.24772045E-3,-599.999970291E-6,,,,,33.24772045E-3,-399.99998990E-6,
,,,33.24776143E-3,-2.6000000E-3,,,,,33.24776143E-3,-399.99998990E-6,
,,,33.24780241E-3,-599.999970291E-6,,,,,33.24780241E-3,-799.999979790E-6,
,,,33.24784338E-3,3.39999981E-3,,,,,33.24784338E-3,0.0,
,,,33.24788064E-3,599.999970291E-6,,,,,33.24788064E-3,1.6000000E-3,
,,,33.24792162E-3,-5.79999993E-3,,,,,33.24792162E-3,-399.99998990E-6,
,,,33.24796259E-3,599.999970291E-6,,,,,33.24796259E-3,-399.99998990E-6,
,,,33.24799985E-3,1.4000000E-3,,,,,33.24799985E-3,799.999979790E-6,
,,,33.24804083E-3,-4.60000010E-3,,,,,33.24804083E-3,-799.999979790E-6,
,,,33.24808180E-3,599.999970291E-6,,,,,33.24808180E-3,-399.99998990E-6,
,,,33.24812278E-3,999.999931082E-6,,,,,33.24812278E-3,1.6000000E-3,
,,,33.24816003E-3,-4.99999989E-3,,,,,33.24816003E-3,-799.999979790E-6,
,,,33.24820101E-3,-999.999931082E-6,,,,,33.24820101E-3,-1.1999999E-3,
,,,33.24824199E-3,999.999931082E-6,,,,,33.24824199E-3,399.99998990E-6,
,,,33.24828297E-3,-999.999931082E-6,,,,,33.24828297E-3,-399.99998990E-6,
,,,33.24832022E-3,-2.2000000E-3,,,,,33.24832022E-3,399.99998990E-6,
,,,33.24836120E-3,-2.2000000E-3,,,,,33.24836120E-3,-1.1999999E-3,
,,,33.24840218E-3,4.60000010E-3,,,,,33.24840218E-3,799.999979790E-6,
,,,33.24844316E-3,999.999931082E-6,,,,,33.24844316E-3,-399.99998990E-6,
,,,33.24848041E-3,-3.39999981E-3,,,,,33.24848041E-3,-1.1999999E-3,
,,,33.24852139E-3,2.2000000E-3,,,,,33.24852139E-3,-399.99998990E-6,
,,,33.24856237E-3,-599.999970291E-6,,,,,33.24856237E-3,-399.99998990E-6,
,,,33.24860334E-3,-999.999931082E-6,,,,,33.24860334E-3,-1.1999999E-3,
,,,33.24864060E-3,4.60000010E-3,,,,,33.24864060E-3,-399.99998990E-6,
,,,33.24868158E-3,1.8000000E-3,,,,,33.24868158E-3,399.99998990E-6,
,,,33.24872255E-3,-2.6000000E-3,,,,,33.24872255E-3,-399.99998990E-6,
,,,33.24875981E-3,-599.999970291E-6,,,,,33.24875981E-3,-799.999979790E-6,
,,,33.24880078E-3,2.2000000E-3,,,,,33.24880078E-3,-799.999979790E-6,
,,,33.24884176E-3,2.6000000E-3,,,,,33.24884176E-3,399.99998990E-6,
,,,33.24888274E-3,-2.6000000E-3,,,,,33.24888274E-3,-399.99998990E-6,
,,,33.24891999E-3,-1.4000000E-3,,,,,33.24891999E-3,0.0,
,,,33.24896097E-3,2.6000000E-3,,,,,33.24896097E-3,399.99998990E-6,
,,,33.24900195E-3,-3.39999981E-3,,,,,33.24900195E-3,-1.1999999E-3,
,,,33.24904293E-3,-1.4000000E-3,,,,,33.24904293E-3,-799.999979790E-6,
,,,33.24908018E-3,3.00000003E-3,,,,,33.24908018E-3,799.999979790E-6,
,,,33.24912116E-3,-3.79999983E-3,,,,,33.24912116E-3,-1.6000000E-3,
,,,33.24916214E-3,-4.19999985E-3,,,,,33.24916214E-3,-399.99998990E-6,
,,,33.24920312E-3,1.4000000E-3,,,,,33.24920312E-3,0.0,
,,,33.24924037E-3,999.999931082E-6,,,,,33.24924037E-3,799.999979790E-6,
,,,33.24928135E-3,-2.6000000E-3,,,,,33.24928135E-3,799.999979790E-6,
,,,33.24932232E-3,-3.00000003E-3,,,,,33.24932232E-3,399.99998990E-6,
,,,33.24936330E-3,199.99999495E-6,,,,,33.24936330E-3,399.99998990E-6,
,,,33.24940056E-3,2.2000000E-3,,,,,33.24940056E-3,399.99998990E-6,
,,,33.24944153E-3,-3.39999981E-3,,,,,33.24944153E-3,-399.99998990E-6,
,,,33.24948251E-3,1.4000000E-3,,,,,33.24948251E-3,0.0,
,,,33.24952349E-3,1.8000000E-3,,,,,33.24952349E-3,799.999979790E-6,
,,,33.24956074E-3,-4.60000010E-3,,,,,33.24956074E-3,-799.999979790E-6,
,,,33.24960172E-3,2.2000000E-3,,,,,33.24960172E-3,-799.999979790E-6,
,,,33.24964270E-3,4.60000010E-3,,,,,33.24964270E-3,799.999979790E-6,
,,,33.24967995E-3,-1.4000000E-3,,,,,33.24967995E-3,799.999979790E-6,
,,,33.24972093E-3,-2.2000000E-3,,,,,33.24972093E-3,399.99998990E-6,
,,,33.24976191E-3,-599.999970291E-6,,,,,33.24976191E-3,-799.999979790E-6,
,,,33.24980289E-3,1.8000000E-3,,,,,33.24980289E-3,799.999979790E-6,
,,,33.24984014E-3,-599.999970291E-6,,,,,33.24984014E-3,399.99998990E-6,
,,,33.24988112E-3,-2.2000000E-3,,,,,33.24988112E-3,-799.999979790E-6,
,,,33.24992210E-3,1.4000000E-3,,,,,33.24992210E-3,399.99998990E-6,
,,,33.24996307E-3,-1.8000000E-3,,,,,33.24996307E-3,0.0,
,,,33.25000033E-3,-4.60000010E-3,,,,,33.25000033E-3,-1.6000000E-3,
,,,33.25004131E-3,3.79999983E-3,,,,,33.25004131E-3,0.0,
,,,33.25008228E-3,-199.99999495E-6,,,,,33.25008228E-3,1.6000000E-3,
,,,33.25012326E-3,-5.79999993E-3,,,,,33.25012326E-3,-799.999979790E-6,
,,,33.25016052E-3,199.99999495E-6,,,,,33.25016052E-3,-399.99998990E-6,
,,,33.25020149E-3,2.6000000E-3,,,,,33.25020149E-3,0.0,
,,,33.25024247E-3,-999.999931082E-6,,,,,33.25024247E-3,799.999979790E-6,
,,,33.25028345E-3,-999.999931082E-6,,,,,33.25028345E-3,399.99998990E-6,
,,,33.25032070E-3,-599.999970291E-6,,,,,33.25032070E-3,-399.99998990E-6,
,,,33.25036168E-3,999.999931082E-6,,,,,33.25036168E-3,399.99998990E-6,
,,,33.25040266E-3,-999.999931082E-6,,,,,33.25040266E-3,-799.999979790E-6,
,,,33.25043991E-3,-599.999970291E-6,,,,,33.25043991E-3,-399.99998990E-6,
,,,33.25048089E-3,4.19999985E-3,,,,,33.25048089E-3,1.1999999E-3,
,,,33.25052187E-3,-2.2000000E-3,,,,,33.25052187E-3,399.99998990E-6,
,,,33.25056285E-3,-3.00000003E-3,,,,,33.25056285E-3,-1.9999999E-3,
,,,33.25060010E-3,5.39999967E-3,,,,,33.25060010E-3,799.999979790E-6,
,,,33.25064108E-3,2.2000000E-3,,,,,33.25064108E-3,399.99998990E-6,
,,,33.25068206E-3,-2.2000000E-3,,,,,33.25068206E-3,-1.1999999E-3,
,,,33.25072303E-3,999.999931082E-6,,,,,33.25072303E-3,0.0,
,,,33.25076029E-3,999.999931082E-6,,,,,33.25076029E-3,-399.99998990E-6,
,,,33.25080127E-3,-199.99999495E-6,,,,,33.25080127E-3,399.99998990E-6,
,,,33.25084224E-3,-199.99999495E-6,,,,,33.25084224E-3,-399.99998990E-6,
,,,33.25088322E-3,1.4000000E-3,,,,,33.25088322E-3,399.99998990E-6,
,,,33.25092047E-3,199.99999495E-6,,,,,33.25092047E-3,399.99998990E-6,
,,,33.25096145E-3,-5.79999993E-3,,,,,33.25096145E-3,-1.1999999E-3,
,,,33.25100243E-3,199.99999495E-6,,,,,33.25100243E-3,-799.999979790E-6,
,,,33.25104341E-3,2.6000000E-3,,,,,33.25104341E-3,1.1999999E-3,
,,,33.25108066E-3,-4.60000010E-3,,,,,33.25108066E-3,-399.99998990E-6,
,,,33.25112164E-3,-3.00000003E-3,,,,,33.25112164E-3,0.0,
,,,33.25116262E-3,199.99999495E-6,,,,,33.25116262E-3,399.99998990E-6,
,,,33.25119987E-3,-1.8000000E-3,,,,,33.25119987E-3,-399.99998990E-6,
,,,33.25124085E-3,-999.999931082E-6,,,,,33.25124085E-3,399.99998990E-6,
,,,33.25128183E-3,-599.999970291E-6,,,,,33.25128183E-3,399.99998990E-6,
,,,33.25132281E-3,-999.999931082E-6,,,,,33.25132281E-3,-399.99998990E-6,
,,,33.25136006E-3,-2.2000000E-3,,,,,33.25136006E-3,399.99998990E-6,
,,,33.25140104E-3,-2.6000000E-3,,,,,33.25140104E-3,-1.6000000E-3,
,,,33.25144202E-3,3.79999983E-3,,,,,33.25144202E-3,0.0,
