data/week4/22.4.csv

Record Length,2500,Points,-251.39999343E-6,1.0160000,,Record Length,2500,Points,-251.39999343E-6,-168.00001264E-3,
Sample Interval,200.00000234E-9,s,-251.19999191E-6,1.0160000,,Sample Interval,200.00000234E-9,s,-251.19999191E-6,-168.00001264E-3,
Trigger Point,1.2570000E3,Samples,-250.99999039E-6,1.0160000,,Trigger Point,1.2570000E3,Samples,-250.99999039E-6,-152.00001001E-3,
,,,-250.79998886E-6,1.0160000,,,,,-250.79998886E-6,-144.0000087E-3,
,,,-250.59998734E-6,1.0160000,,,,,-250.59998734E-6,-136.0000074E-3,
,,,-250.39998582E-6,1.0160000,,,,,-250.39998582E-6,-120.0000048E-3,
Source,CH1,,-250.19998429E-6,1.0160000,,Source,CH2,,-250.19998429E-6,-120.0000048E-3,
Vertical Units,Volts,,-249.99998277E-6,1.0160000,,Vertical Units,Volts,,-249.99998277E-6,-112.0000035E-3,
Vertical Scale,200.00000950E-3,,-249.79998125E-6,1.0160000,,Vertical Scale,200.00000950E-3,,-249.79998125E-6,-104.0000021E-3,
Vertical Offset,0,,-249.59997972E-6,1.0160000,,Vertical Offset,0,,-249.59997972E-6,-112.0000035E-3,
Horizontal Units,s,,-249.40000731E-6,992.000043392E-3,,Horizontal Units,s,,-249.40000731E-6,-96.000000834E-3,
Horizontal Scale,50.00000058E-6,,-249.20000578E-6,960.000038147E-3,,Horizontal Scale,50.00000058E-6,,-249.20000578E-6,-80.000005662E-3,
Pt Fmt,Y,,-249.00000426E-6,904.000043869E-3,,Pt Fmt,Y,,-249.00000426E-6,-64.000003040E-3,
Yzero,0.0,,-248.80000274E-6,872.000038624E-3,,Yzero,40.00000000E-3,,-248.80000274E-6,-56.000001729E-3,
Probe Atten,10.0000000,,-248.60000121E-6,832.000017166E-3,,Probe Atten,10.0000000,,-248.60000121E-6,-48.00000042E-3,
,,,-248.39999969E-6,816.000044346E-3,,,,,-248.39999969E-6,-56.000001729E-3,
Note,TBS 1052B-EDU - 16:11:59   02-Jun-22,,-248.19999817E-6,768.000006676E-3,,Note,TBS 1052B-EDU - 16:11:59   02-Jun-22,,-248.19999817E-6,-32.00000152E-3,
,,,-247.99999665E-6,720.000028610E-3,,,,,-247.99999665E-6,-24.00000021E-3,
,,,-247.79999512E-6,680.000007153E-3,,,,,-247.79999512E-6,-16.0000008E-3,
,,,-247.59999360E-6,648.000001907E-3,,,,,-247.59999360E-6,0.0,
,,,-247.39999208E-6,616.000056267E-3,,,,,-247.39999208E-6,8.000000380E-3,
,,,-247.19999055E-6,576.000034809E-3,,,,,-247.19999055E-6,16.0000008E-3,
,,,-246.99998903E-6,520.000040531E-3,,,,,-246.99998903E-6,24.00000021E-3,
,,,-246.79998751E-6,472.000032663E-3,,,,,-246.79998751E-6,32.00000152E-3,
,,,-246.59998599E-6,448.000013828E-3,,,,,-246.59998599E-6,40.00000283E-3,
,,,-246.39998446E-6,384.00000334E-3,,,,,-246.39998446E-6,48.00000042E-3,
,,,-246.19998294E-6,360.00001431E-3,,,,,-246.19998294E-6,64.000003040E-3,
,,,-245.99998142E-6,328.00000906E-3,,,,,-245.99998142E-6,64.000003040E-3,
,,,-245.79997989E-6,272.00001478E-3,,,,,-245.79997989E-6,72.000004351E-3,
,,,-245.60000747E-6,232.00000823E-3,,,,,-245.60000747E-6,80.000005662E-3,
,,,-245.40000595E-6,192.00000167E-3,,,,,-245.40000595E-6,104.0000021E-3,
,,,-245.20000443E-6,128.0000061E-3,,,,,-245.20000443E-6,104.0000021E-3,
,,,-245.00000291E-6,112.0000035E-3,,,,,-245.00000291E-6,104.0000021E-3,
,,,-244.80000138E-6,48.00000042E-3,,,,,-244.80000138E-6,128.0000061E-3,
,,,-244.59999986E-6,16.0000008E-3,,,,,-244.59999986E-6,136.0000074E-3,
,,,-244.39999834E-6,-40.00000283E-3,,,,,-244.39999834E-6,144.0000087E-3,
,,,-244.19999681E-6,-72.000004351E-3,,,,,-244.19999681E-6,152.00001001E-3,
,,,-243.99999529E-6,-112.0000035E-3,,,,,-243.99999529E-6,160.00001132E-3,
,,,-243.79999377E-6,-168.00001264E-3,,,,,-243.79999377E-6,168.00001264E-3,
,,,-243.59999225E-6,-224.00000691E-3,,,,,-243.59999225E-6,168.00001264E-3,
,,,-243.39999072E-6,-256.00001216E-3,,,,,-243.39999072E-6,184.00001526E-3,
,,,-243.19998920E-6,-312.00000644E-3,,,,,-243.19998920E-6,176.00001395E-3,
,,,-242.99998768E-6,-352.00002789E-3,,,,,-242.99998768E-6,200.00000298E-3,
,,,-242.79998615E-6,-392.00001955E-3,,,,,-242.79998615E-6,200.00000298E-3,
,,,-242.59999918E-6,-440.000027418E-3,,,,,-242.59999918E-6,208.00000429E-3,
,,,-242.39999766E-6,-400.00000596E-3,,,,,-242.39999766E-6,152.00001001E-3,
,,,-242.19999614E-6,-496.000021696E-3,,,,,-242.19999614E-6,208.00000429E-3,
,,,-241.99999461E-6,-568.000018597E-3,,,,,-241.99999461E-6,232.00000823E-3,
,,,-241.79999309E-6,-600.000023842E-3,,,,,-241.79999309E-6,232.00000823E-3,
,,,-241.59999157E-6,-656.000018120E-3,,,,,-241.59999157E-6,240.00000954E-3,
,,,-241.39999005E-6,-712.000012398E-3,,,,,-241.39999005E-6,232.00000823E-3,
,,,-241.19998852E-6,-728.000044823E-3,,,,,-241.19998852E-6,256.00001216E-3,
,,,-240.99998700E-6,-744.000017643E-3,,,,,-240.99998700E-6,248.00001085E-3,
,,,-240.80000003E-6,-800.000011921E-3,,,,,-240.80000003E-6,272.00001478E-3,
,,,-240.59999851E-6,-832.000017166E-3,,,,,-240.59999851E-6,256.00001216E-3,
,,,-240.39999698E-6,-880.000054836E-3,,,,,-240.39999698E-6,263.99999857E-3,
,,,-240.19999546E-6,-928.000032902E-3,,,,,-240.19999546E-6,272.00001478E-3,
,,,-239.99999394E-6,-952.000021935E-3,,,,,-239.99999394E-6,280.00000119E-3,
,,,-239.79999241E-6,-968.000054359E-3,,,,,-239.79999241E-6,280.00000119E-3,
,,,-239.59999089E-6,-1.0160000,,,,,-239.59999089E-6,296.00000381E-3,
,,,-239.39998937E-6,-1.0160000,,,,,-239.39998937E-6,312.00000644E-3,
,,,-239.19998785E-6,-1.0160000,,,,,-239.19998785E-6,296.00000381E-3,
,,,-238.99998632E-6,-1.0160000,,,,,-238.99998632E-6,304.00002003E-3,
,,,-238.79999935E-6,-1.0160000,,,,,-238.79999935E-6,320.00002265E-3,
,,,-238.59999783E-6,-1.0160000,,,,,-238.59999783E-6,304.00002003E-3,
,,,-238.39999631E-6,-1.0160000,,,,,-238.39999631E-6,312.00000644E-3,
,,,-238.19999478E-6,-1.0160000,,,,,-238.19999478E-6,320.00002265E-3,
,,,-237.99999326E-6,-1.0160000,,,,,-237.99999326E-6,312.00000644E-3,
,,,-237.79999174E-6,-1.0160000,,,,,-237.79999174E-6,312.00000644E-3,
,,,-237.59999021E-6,-1.0160000,,,,,-237.59999021E-6,312.00000644E-3,
,,,-237.39998869E-6,-1.0160000,,,,,-237.39998869E-6,320.00002265E-3,
,,,-237.19998717E-6,-1.0160000,,,,,-237.19998717E-6,312.00000644E-3,
,,,-237.00000020E-6,-1.0160000,,,,,-237.00000020E-6,312.00000644E-3,
,,,-236.79999867E-6,-1.0160000,,,,,-236.79999867E-6,328.00000906E-3,
,,,-236.59999715E-6,-1.0160000,,,,,-236.59999715E-6,312.00000644E-3,
,,,-236.39999563E-6,-1.0160000,,,,,-236.39999563E-6,320.00002265E-3,
,,,-236.19999411E-6,-1.0160000,,,,,-236.19999411E-6,320.00002265E-3,
,,,-235.99999258E-6,-1.0160000,,,,,-235.99999258E-6,328.00000906E-3,
,,,-235.79999106E-6,-1.0160000,,,,,-235.79999106E-6,320.00002265E-3,
,,,-235.59998954E-6,-1.0160000,,,,,-235.59998954E-6,328.00000906E-3,
,,,-235.39998801E-6,-1.0160000,,,,,-235.39998801E-6,296.00000381E-3,
,,,-235.19998649E-6,-1.0160000,,,,,-235.19998649E-6,328.00000906E-3,
,,,-234.99999952E-6,-1.0160000,,,,,-234.99999952E-6,320.00002265E-3,
,,,-234.79999800E-6,-1.0160000,,,,,-234.79999800E-6,312.00000644E-3,
,,,-234.59999647E-6,-1.0160000,,,,,-234.59999647E-6,312.00000644E-3,
,,,-234.39999495E-6,-1.0160000,,,,,-234.39999495E-6,312.00000644E-3,
,,,-234.19999343E-6,-1.0160000,,,,,-234.19999343E-6,320.00002265E-3,
,,,-233.99999191E-6,-1.0160000,,,,,-233.99999191E-6,296.00000381E-3,
,,,-233.79999038E-6,-1.0160000,,,,,-233.79999038E-6,304.00002003E-3,
,,,-233.59998886E-6,-1.0160000,,,,,-233.59998886E-6,296.00000381E-3,
,,,-233.39998734E-6,-1.0160000,,,,,-233.39998734E-6,312.00000644E-3,
,,,-233.20000037E-6,-1.0160000,,,,,-233.20000037E-6,304.00002003E-3,
,,,-232.99999884E-6,-1.0160000,,,,,-232.99999884E-6,280.00000119E-3,
,,,-232.79999732E-6,-1.0160000,,,,,-232.79999732E-6,280.00000119E-3,
,,,-232.59999580E-6,-1.0160000,,,,,-232.59999580E-6,272.00001478E-3,
,,,-232.39999427E-6,-1.0160000,,,,,-232.39999427E-6,280.00000119E-3,
,,,-232.19999275E-6,-1.0160000,,,,,-232.19999275E-6,272.00001478E-3,
,,,-231.99999123E-6,-1.0160000,,,,,-231.99999123E-6,263.99999857E-3,
,,,-231.79998971E-6,-1.0160000,,,,,-231.79998971E-6,263.99999857E-3,
,,,-231.59998818E-6,-1.0160000,,,,,-231.59998818E-6,256.00001216E-3,
,,,-231.39998666E-6,-1.0160000,,,,,-231.39998666E-6,240.00000954E-3,
,,,-231.19999969E-6,-1.0160000,,,,,-231.19999969E-6,240.00000954E-3,
,,,-230.99999817E-6,-1.0160000,,,,,-230.99999817E-6,232.00000823E-3,
,,,-230.79999664E-6,-1.0160000,,,,,-230.79999664E-6,224.00000691E-3,
,,,-230.59999512E-6,-1.0160000,,,,,-230.59999512E-6,216.00000560E-3,
,,,-230.39999360E-6,-1.0160000,,,,,-230.39999360E-6,208.00000429E-3,
,,,-230.19999207E-6,-1.0160000,,,,,-230.19999207E-6,208.00000429E-3,
,,,-229.99999055E-6,-1.0160000,,,,,-229.99999055E-6,200.00000298E-3,
,,,-229.79998903E-6,-1.0160000,,,,,-229.79998903E-6,184.00001526E-3,
,,,-229.59998751E-6,-1.0160000,,,,,-229.59998751E-6,192.00000167E-3,
,,,-229.39998598E-6,-1.0160000,,,,,-229.39998598E-6,176.00001395E-3,
,,,-229.19999901E-6,-1.0160000,,,,,-229.19999901E-6,176.00001395E-3,
,,,-228.99999749E-6,-1.0160000,,,,,-228.99999749E-6,152.00001001E-3,
,,,-228.79999597E-6,-1.0160000,,,,,-228.79999597E-6,160.00001132E-3,
,,,-228.59999444E-6,-1.0160000,,,,,-228.59999444E-6,144.0000087E-3,
,,,-228.39999292E-6,-1.0160000,,,,,-228.39999292E-6,144.0000087E-3,
,,,-228.19999140E-6,-1.0160000,,,,,-228.19999140E-6,128.0000061E-3,
,,,-227.99998987E-6,-1.0160000,,,,,-227.99998987E-6,112.0000035E-3,
,,,-227.79998835E-6,-1.0160000,,,,,-227.79998835E-6,96.000000834E-3,
,,,-227.59998683E-6,-1.0160000,,,,,-227.59998683E-6,104.0000021E-3,
,,,-227.39999986E-6,-1.0160000,,,,,-227.39999986E-6,104.0000021E-3,
,,,-227.19999833E-6,-1.0080000,,,,,-227.19999833E-6,80.000005662E-3,
,,,-226.99999681E-6,-960.000038147E-3,,,,,-226.99999681E-6,64.000003040E-3,
,,,-226.79999529E-6,-936.000049114E-3,,,,,-226.79999529E-6,72.000004351E-3,
,,,-226.59999377E-6,-904.000043869E-3,,,,,-226.59999377E-6,64.000003040E-3,
,,,-226.39999224E-6,-848.000049591E-3,,,,,-226.39999224E-6,48.00000042E-3,
,,,-226.19999072E-6,-784.000039101E-3,,,,,-226.19999072E-6,40.00000283E-3,
,,,-225.99998920E-6,-792.000055313E-3,,,,,-225.99998920E-6,72.000004351E-3,
,,,-225.79998767E-6,-752.000033855E-3,,,,,-225.79998767E-6,16.0000008E-3,
,,,-225.59998615E-6,-712.000012398E-3,,,,,-225.59998615E-6,8.000000380E-3,
,,,-225.39999918E-6,-672.000050545E-3,,,,,-225.39999918E-6,0.0,
,,,-225.19999766E-6,-648.000001907E-3,,,,,-225.19999766E-6,0.0,
,,,-224.99999614E-6,-584.000051022E-3,,,,,-224.99999614E-6,-16.0000008E-3,
,,,-224.79999461E-6,-552.000045776E-3,,,,,-224.79999461E-6,-24.00000021E-3,
,,,-224.59999309E-6,-496.000021696E-3,,,,,-224.59999309E-6,-32.00000152E-3,
,,,-224.39999157E-6,-456.000030041E-3,,,,,-224.39999157E-6,-32.00000152E-3,
,,,-224.19999004E-6,-416.000008583E-3,,,,,-224.19999004E-6,-48.00000042E-3,
,,,-223.99998852E-6,-368.00003052E-3,,,,,-223.99998852E-6,-72.000004351E-3,
,,,-223.79998700E-6,-336.00002527E-3,,,,,-223.79998700E-6,-64.000003040E-3,
,,,-223.60000003E-6,-296.00000381E-3,,,,,-223.60000003E-6,-72.000004351E-3,
,,,-223.39999850E-6,-248.00001085E-3,,,,,-223.39999850E-6,-80.000005662E-3,
,,,-223.19999698E-6,-208.00000429E-3,,,,,-223.19999698E-6,-88.000006974E-3,
,,,-222.99999546E-6,-144.0000087E-3,,,,,-222.99999546E-6,-104.0000021E-3,
,,,-222.79999394E-6,-120.0000048E-3,,,,,-222.79999394E-6,-112.0000035E-3,
,,,-222.59999241E-6,-80.000005662E-3,,,,,-222.59999241E-6,-120.0000048E-3,
,,,-222.39999089E-6,-24.00000021E-3,,,,,-222.39999089E-6,-136.0000074E-3,
,,,-222.19998937E-6,8.000000380E-3,,,,,-222.19998937E-6,-136.0000074E-3,
,,,-221.99998784E-6,56.000001729E-3,,,,,-221.99998784E-6,-136.0000074E-3,
,,,-221.79998632E-6,104.0000021E-3,,,,,-221.79998632E-6,-160.00001132E-3,
,,,-221.59999935E-6,136.0000074E-3,,,,,-221.59999935E-6,-168.00001264E-3,
,,,-221.39999783E-6,200.00000298E-3,,,,,-221.39999783E-6,-168.00001264E-3,
,,,-221.19999630E-6,240.00000954E-3,,,,,-221.19999630E-6,-176.00001395E-3,
,,,-220.99999478E-6,280.00000119E-3,,,,,-220.99999478E-6,-192.00000167E-3,
,,,-220.79999326E-6,304.00002003E-3,,,,,-220.79999326E-6,-200.00000298E-3,
,,,-220.59999174E-6,360.00001431E-3,,,,,-220.59999174E-6,-208.00000429E-3,
,,,-220.39999021E-6,416.000008583E-3,,,,,-220.39999021E-6,-208.00000429E-3,
,,,-220.19998869E-6,480.000019073E-3,,,,,-220.19998869E-6,-208.00000429E-3,
,,,-219.99998717E-6,496.000021696E-3,,,,,-219.99998717E-6,-240.00000954E-3,
,,,-219.80000020E-6,527.999997139E-3,,,,,-219.80000020E-6,-224.00000691E-3,
,,,-219.59999867E-6,576.000034809E-3,,,,,-219.59999867E-6,-224.00000691E-3,
,,,-219.39999715E-6,624.000012875E-3,,,,,-219.39999715E-6,-240.00000954E-3,
,,,-219.19999563E-6,640.000045300E-3,,,,,-219.19999563E-6,-256.00001216E-3,
,,,-218.99999410E-6,696.000039577E-3,,,,,-218.99999410E-6,-256.00001216E-3,
,,,-218.79999258E-6,728.000044823E-3,,,,,-218.79999258E-6,-263.99999857E-3,
,,,-218.59999106E-6,768.000006676E-3,,,,,-218.59999106E-6,-248.00001085E-3,
,,,-218.39998954E-6,816.000044346E-3,,,,,-218.39998954E-6,-263.99999857E-3,
,,,-218.19998801E-6,848.000049591E-3,,,,,-218.19998801E-6,-296.00000381E-3,
,,,-217.99998649E-6,872.000038624E-3,,,,,-217.99998649E-6,-280.00000119E-3,
,,,-217.79999952E-6,936.000049114E-3,,,,,-217.79999952E-6,-272.00001478E-3,
,,,-217.59999800E-6,952.000021935E-3,,,,,-217.59999800E-6,-296.00000381E-3,
,,,-217.39999647E-6,976.000070572E-3,,,,,-217.39999647E-6,-304.00002003E-3,
,,,-217.19999495E-6,992.000043392E-3,,,,,-217.19999495E-6,-304.00002003E-3,
,,,-216.99999343E-6,1.0160000,,,,,-216.99999343E-6,-312.00000644E-3,
,,,-216.79999190E-6,1.0160000,,,,,-216.79999190E-6,-304.00002003E-3,
,,,-216.59999038E-6,1.0160000,,,,,-216.59999038E-6,-312.00000644E-3,
,,,-216.39998886E-6,1.0160000,,,,,-216.39998886E-6,-304.00002003E-3,
,,,-216.19998734E-6,1.0160000,,,,,-216.19998734E-6,-312.00000644E-3,
,,,-215.99998581E-6,1.0160000,,,,,-215.99998581E-6,-312.00000644E-3,
,,,-215.79999884E-6,1.0160000,,,,,-215.79999884E-6,-320.00002265E-3,
,,,-215.59999732E-6,1.0160000,,,,,-215.59999732E-6,-312.00000644E-3,
,,,-215.39999580E-6,1.0160000,,,,,-215.39999580E-6,-328.00000906E-3,
,,,-215.19999427E-6,1.0160000,,,,,-215.19999427E-6,-304.00002003E-3,
,,,-214.99999275E-6,1.0160000,,,,,-214.99999275E-6,-320.00002265E-3,
,,,-214.79999123E-6,1.0160000,,,,,-214.79999123E-6,-328.00000906E-3,
,,,-214.59998970E-6,1.0160000,,,,,-214.59998970E-6,-336.00002527E-3,
,,,-214.39998818E-6,1.0160000,,,,,-214.39998818E-6,-320.00002265E-3,
,,,-214.19998666E-6,1.0160000,,,,,-214.19998666E-6,-320.00002265E-3,
,,,-213.99999969E-6,1.0160000,,,,,-213.99999969E-6,-344.00001168E-3,
,,,-213.79999816E-6,1.0160000,,,,,-213.79999816E-6,-320.00002265E-3,
,,,-213.59999664E-6,1.0160000,,,,,-213.59999664E-6,-320.00002265E-3,
,,,-213.39999512E-6,1.0160000,,,,,-213.39999512E-6,-328.00000906E-3,
,,,-213.19999360E-6,1.0160000,,,,,-213.19999360E-6,-328.00000906E-3,
,,,-212.99999207E-6,1.0160000,,,,,-212.99999207E-6,-320.00002265E-3,
,,,-212.79999055E-6,1.0160000,,,,,-212.79999055E-6,-320.00002265E-3,
,,,-212.59998903E-6,1.0160000,,,,,-212.59998903E-6,-344.00001168E-3,
,,,-212.39998750E-6,1.0160000,,,,,-212.39998750E-6,-328.00000906E-3,
,,,-212.19998598E-6,1.0160000,,,,,-212.19998598E-6,-328.00000906E-3,
,,,-211.99999901E-6,1.0160000,,,,,-211.99999901E-6,-304.00002003E-3,
,,,-211.79999749E-6,1.0160000,,,,,-211.79999749E-6,-296.00000381E-3,
,,,-211.59999596E-6,1.0160000,,,,,-211.59999596E-6,-296.00000381E-3,
,,,-211.39999444E-6,1.0160000,,,,,-211.39999444E-6,-296.00000381E-3,
,,,-211.19999292E-6,1.0160000,,,,,-211.19999292E-6,-312.00000644E-3,
,,,-210.99999140E-6,1.0160000,,,,,-210.99999140E-6,-288.00001740E-3,
,,,-210.79998987E-6,1.0160000,,,,,-210.79998987E-6,-288.00001740E-3,
,,,-210.59998835E-6,1.0160000,,,,,-210.59998835E-6,-304.00002003E-3,
,,,-210.39998683E-6,1.0160000,,,,,-210.39998683E-6,-304.00002003E-3,
,,,-210.19999986E-6,1.0160000,,,,,-210.19999986E-6,-272.00001478E-3,
,,,-209.99999833E-6,1.0160000,,,,,-209.99999833E-6,-263.99999857E-3,
,,,-209.79999681E-6,1.0160000,,,,,-209.79999681E-6,-263.99999857E-3,
,,,-209.59999529E-6,1.0160000,,,,,-209.59999529E-6,-224.00000691E-3,
,,,-209.39999376E-6,1.0160000,,,,,-209.39999376E-6,-256.00001216E-3,
,,,-209.19999224E-6,1.0160000,,,,,-209.19999224E-6,-248.00001085E-3,
,,,-208.99999072E-6,1.0160000,,,,,-208.99999072E-6,-248.00001085E-3,
,,,-208.79998920E-6,1.0160000,,,,,-208.79998920E-6,-240.00000954E-3,
,,,-208.59998767E-6,1.0160000,,,,,-208.59998767E-6,-232.00000823E-3,
,,,-208.39998615E-6,1.0160000,,,,,-208.39998615E-6,-208.00000429E-3,
,,,-208.19999918E-6,1.0160000,,,,,-208.19999918E-6,-216.00000560E-3,
,,,-207.99999766E-6,1.0160000,,,,,-207.99999766E-6,-200.00000298E-3,
,,,-207.79999613E-6,1.0160000,,,,,-207.79999613E-6,-208.00000429E-3,
,,,-207.59999461E-6,1.0160000,,,,,-207.59999461E-6,-176.00001395E-3,
,,,-207.39999309E-6,1.0160000,,,,,-207.39999309E-6,-184.00001526E-3,
,,,-207.19999156E-6,1.0160000,,,,,-207.19999156E-6,-176.00001395E-3,
,,,-206.99999004E-6,1.0160000,,,,,-206.99999004E-6,-168.00001264E-3,
,,,-206.79998852E-6,1.0160000,,,,,-206.79998852E-6,-152.00001001E-3,
,,,-206.59998700E-6,1.0160000,,,,,-206.59998700E-6,-160.00001132E-3,
,,,-206.40000002E-6,1.0160000,,,,,-206.40000002E-6,-160.00001132E-3,
,,,-206.19999850E-6,1.0160000,,,,,-206.19999850E-6,-144.0000087E-3,
,,,-205.99999698E-6,1.0160000,,,,,-205.99999698E-6,-144.0000087E-3,
,,,-205.79999546E-6,1.0160000,,,,,-205.79999546E-6,-128.0000061E-3,
,,,-205.59999393E-6,1.0160000,,,,,-205.59999393E-6,-128.0000061E-3,
,,,-205.39999241E-6,1.0160000,,,,,-205.39999241E-6,-112.0000035E-3,
,,,-205.19999089E-6,1.0160000,,,,,-205.19999089E-6,-96.000000834E-3,
,,,-204.99998936E-6,1.000000,,,,,-204.99998936E-6,-88.000006974E-3,
,,,-204.79998784E-6,976.000070572E-3,,,,,-204.79998784E-6,-80.000005662E-3,
,,,-204.59998632E-6,952.000021935E-3,,,,,-204.59998632E-6,-64.000003040E-3,
,,,-204.39999935E-6,880.000054836E-3,,,,,-204.39999935E-6,-56.000001729E-3,
,,,-204.19999782E-6,856.000065804E-3,,,,,-204.19999782E-6,-56.000001729E-3,
,,,-203.99999630E-6,880.000054836E-3,,,,,-203.99999630E-6,-56.000001729E-3,
,,,-203.79999478E-6,792.000055313E-3,,,,,-203.79999478E-6,-40.00000283E-3,
,,,-203.59999326E-6,736.000061035E-3,,,,,-203.59999326E-6,-24.00000021E-3,
,,,-203.39999173E-6,720.000028610E-3,,,,,-203.39999173E-6,-16.0000008E-3,
,,,-203.19999021E-6,680.000007153E-3,,,,,-203.19999021E-6,-8.000000380E-3,
,,,-202.99998869E-6,640.000045300E-3,,,,,-202.99998869E-6,-8.000000380E-3,
,,,-202.79998716E-6,576.000034809E-3,,,,,-202.79998716E-6,-8.000000380E-3,
,,,-202.59998564E-6,552.000045776E-3,,,,,-202.59998564E-6,24.00000021E-3,
,,,-202.39999867E-6,520.000040531E-3,,,,,-202.39999867E-6,16.0000008E-3,
,,,-202.19999715E-6,480.000019073E-3,,,,,-202.19999715E-6,32.00000152E-3,
,,,-201.99999562E-6,440.000027418E-3,,,,,-201.99999562E-6,40.00000283E-3,
,,,-201.79999410E-6,384.00000334E-3,,,,,-201.79999410E-6,64.000003040E-3,
,,,-201.59999258E-6,360.00001431E-3,,,,,-201.59999258E-6,56.000001729E-3,
,,,-201.39999106E-6,304.00002003E-3,,,,,-201.39999106E-6,72.000004351E-3,
,,,-201.19998953E-6,256.00001216E-3,,,,,-201.19998953E-6,80.000005662E-3,
,,,-200.99998801E-6,208.00000429E-3,,,,,-200.99998801E-6,88.000006974E-3,
,,,-200.79998649E-6,168.00001264E-3,,,,,-200.79998649E-6,96.000000834E-3,
,,,-200.59999952E-6,128.0000061E-3,,,,,-200.59999952E-6,104.0000021E-3,
,,,-200.39999799E-6,88.000006974E-3,,,,,-200.39999799E-6,112.0000035E-3,
,,,-200.19999647E-6,32.00000152E-3,,,,,-200.19999647E-6,128.0000061E-3,
,,,-199.99999495E-6,-8.000000380E-3,,,,,-199.99999495E-6,128.0000061E-3,
,,,-199.79999342E-6,-48.00000042E-3,,,,,-199.79999342E-6,136.0000074E-3,
,,,-199.59999190E-6,-96.000000834E-3,,,,,-199.59999190E-6,152.00001001E-3,
,,,-199.39999038E-6,-136.0000074E-3,,,,,-199.39999038E-6,160.00001132E-3,
,,,-199.19998886E-6,-184.00001526E-3,,,,,-199.19998886E-6,160.00001132E-3,
,,,-198.99998733E-6,-208.00000429E-3,,,,,-198.99998733E-6,168.00001264E-3,
,,,-198.79998581E-6,-272.00001478E-3,,,,,-198.79998581E-6,192.00000167E-3,
,,,-198.59999884E-6,-312.00000644E-3,,,,,-198.59999884E-6,192.00000167E-3,
,,,-198.39999732E-6,-352.00002789E-3,,,,,-198.39999732E-6,200.00000298E-3,
,,,-198.19999579E-6,-392.00001955E-3,,,,,-198.19999579E-6,208.00000429E-3,
,,,-197.99999427E-6,-440.000027418E-3,,,,,-197.99999427E-6,216.00000560E-3,
,,,-197.79999275E-6,-496.000021696E-3,,,,,-197.79999275E-6,216.00000560E-3,
,,,-197.59999122E-6,-536.000013351E-3,,,,,-197.59999122E-6,208.00000429E-3,
