data/week4/6.5.csv

Record Length,2500,Points,-1.2510001E-3,-456.000030041E-3,,Record Length,2500,Points,-1.2510001E-3,-88.000006974E-3,
Sample Interval,1.000000E-6,s,-1.2500001E-3,-432.000011206E-3,,Sample Interval,1.000000E-6,s,-1.2500001E-3,-80.000005662E-3,
Trigger Point,1.2510002E3,Samples,-1.2490001E-3,-432.000011206E-3,,Trigger Point,1.2510002E3,Samples,-1.2490001E-3,-72.000004351E-3,
,,,-1.2480001E-3,-424.000024796E-3,,,,,-1.2480001E-3,-64.000003040E-3,
,,,-1.2470001E-3,-408.000022173E-3,,,,,-1.2470001E-3,-80.000005662E-3,
,,,-1.2460001E-3,-392.00001955E-3,,,,,-1.2460001E-3,-56.000001729E-3,
Source,CH1,,-1.2450001E-3,-360.00001431E-3,,Source,CH2,,-1.2450001E-3,-72.000004351E-3,
Vertical Units,Volts,,-1.2440000E-3,-352.00002789E-3,,Vertical Units,Volts,,-1.2440000E-3,-40.00000283E-3,
Vertical Scale,200.00000950E-3,,-1.2430002E-3,-352.00002789E-3,,Vertical Scale,200.00000950E-3,,-1.2430002E-3,-80.000005662E-3,
Vertical Offset,0,,-1.2420001E-3,-312.00000644E-3,,Vertical Offset,0,,-1.2420001E-3,-56.000001729E-3,
Horizontal Units,s,,-1.2410001E-3,-288.00001740E-3,,Horizontal Units,s,,-1.2410001E-3,-64.000003040E-3,
Horizontal Scale,249.99999937E-6,,-1.2400001E-3,-272.00001478E-3,,Horizontal Scale,249.99999937E-6,,-1.2400001E-3,-48.00000042E-3,
Pt Fmt,Y,,-1.2390001E-3,-248.00001085E-3,,Pt Fmt,Y,,-1.2390001E-3,-24.00000021E-3,
Yzero,0.0,,-1.2380001E-3,-216.00000560E-3,,Yzero,40.00000000E-3,,-1.2380001E-3,-40.00000283E-3,
Probe Atten,10.0000000,,-1.2370001E-3,-208.00000429E-3,,Probe Atten,10.0000000,,-1.2370001E-3,-32.00000152E-3,
,,,-1.2360001E-3,-192.00000167E-3,,,,,-1.2360001E-3,-32.00000152E-3,
Note,TBS 1052B-EDU - 15:46:09   02-Jun-22,,-1.2350001E-3,-168.00001264E-3,,Note,TBS 1052B-EDU - 15:46:09   02-Jun-22,,-1.2350001E-3,-48.00000042E-3,
,,,-1.2340001E-3,-144.0000087E-3,,,,,-1.2340001E-3,-24.00000021E-3,
,,,-1.2330001E-3,-104.0000021E-3,,,,,-1.2330001E-3,-24.00000021E-3,
,,,-1.2320001E-3,-104.0000021E-3,,,,,-1.2320001E-3,-16.0000008E-3,
,,,-1.2310001E-3,-80.000005662E-3,,,,,-1.2310001E-3,-16.0000008E-3,
,,,-1.2300001E-3,-40.00000283E-3,,,,,-1.2300001E-3,-8.000000380E-3,
,,,-1.2290000E-3,-24.00000021E-3,,,,,-1.2290000E-3,0.0,
,,,-1.2280002E-3,8.000000380E-3,,,,,-1.2280002E-3,0.0,
,,,-1.2270001E-3,24.00000021E-3,,,,,-1.2270001E-3,0.0,
,,,-1.2260001E-3,48.00000042E-3,,,,,-1.2260001E-3,0.0,
,,,-1.2250001E-3,64.000003040E-3,,,,,-1.2250001E-3,8.000000380E-3,
,,,-1.2240001E-3,96.000000834E-3,,,,,-1.2240001E-3,16.0000008E-3,
,,,-1.2230001E-3,112.0000035E-3,,,,,-1.2230001E-3,24.00000021E-3,
,,,-1.2220001E-3,144.0000087E-3,,,,,-1.2220001E-3,16.0000008E-3,
,,,-1.2210001E-3,160.00001132E-3,,,,,-1.2210001E-3,24.00000021E-3,
,,,-1.2200001E-3,184.00001526E-3,,,,,-1.2200001E-3,24.00000021E-3,
,,,-1.2190001E-3,208.00000429E-3,,,,,-1.2190001E-3,24.00000021E-3,
,,,-1.2180001E-3,232.00000823E-3,,,,,-1.2180001E-3,32.00000152E-3,
,,,-1.2170001E-3,256.00001216E-3,,,,,-1.2170001E-3,40.00000283E-3,
,,,-1.2160001E-3,288.00001740E-3,,,,,-1.2160001E-3,48.00000042E-3,
,,,-1.2150001E-3,312.00000644E-3,,,,,-1.2150001E-3,48.00000042E-3,
,,,-1.2140000E-3,320.00002265E-3,,,,,-1.2140000E-3,56.000001729E-3,
,,,-1.2130000E-3,344.00001168E-3,,,,,-1.2130000E-3,48.00000042E-3,
,,,-1.2120001E-3,360.00001431E-3,,,,,-1.2120001E-3,56.000001729E-3,
,,,-1.2110001E-3,376.00001693E-3,,,,,-1.2110001E-3,56.000001729E-3,
,,,-1.2100001E-3,392.00001955E-3,,,,,-1.2100001E-3,64.000003040E-3,
,,,-1.2090001E-3,408.000022173E-3,,,,,-1.2090001E-3,72.000004351E-3,
,,,-1.2080001E-3,408.000022173E-3,,,,,-1.2080001E-3,64.000003040E-3,
,,,-1.2070001E-3,432.000011206E-3,,,,,-1.2070001E-3,80.000005662E-3,
,,,-1.2060001E-3,456.000030041E-3,,,,,-1.2060001E-3,48.00000042E-3,
,,,-1.2050001E-3,464.000016451E-3,,,,,-1.2050001E-3,88.000006974E-3,
,,,-1.2040001E-3,472.000032663E-3,,,,,-1.2040001E-3,48.00000042E-3,
,,,-1.2030001E-3,496.000021696E-3,,,,,-1.2030001E-3,80.000005662E-3,
,,,-1.2020001E-3,496.000021696E-3,,,,,-1.2020001E-3,80.000005662E-3,
,,,-1.2010001E-3,504.000008106E-3,,,,,-1.2010001E-3,88.000006974E-3,
,,,-1.2000001E-3,536.000013351E-3,,,,,-1.2000001E-3,88.000006974E-3,
,,,-1.1990000E-3,536.000013351E-3,,,,,-1.1990000E-3,96.000000834E-3,
,,,-1.1980000E-3,544.000029564E-3,,,,,-1.1980000E-3,88.000006974E-3,
,,,-1.1970002E-3,552.000045776E-3,,,,,-1.1970002E-3,80.000005662E-3,
,,,-1.1960001E-3,552.000045776E-3,,,,,-1.1960001E-3,80.000005662E-3,
,,,-1.1950001E-3,552.000045776E-3,,,,,-1.1950001E-3,88.000006974E-3,
,,,-1.1940001E-3,560.000002384E-3,,,,,-1.1940001E-3,96.000000834E-3,
,,,-1.1930001E-3,576.000034809E-3,,,,,-1.1930001E-3,96.000000834E-3,
,,,-1.1920001E-3,576.000034809E-3,,,,,-1.1920001E-3,88.000006974E-3,
,,,-1.1910001E-3,584.000051022E-3,,,,,-1.1910001E-3,88.000006974E-3,
,,,-1.1900001E-3,568.000018597E-3,,,,,-1.1900001E-3,96.000000834E-3,
,,,-1.1890001E-3,568.000018597E-3,,,,,-1.1890001E-3,88.000006974E-3,
,,,-1.1880001E-3,600.000023842E-3,,,,,-1.1880001E-3,96.000000834E-3,
,,,-1.1870001E-3,568.000018597E-3,,,,,-1.1870001E-3,96.000000834E-3,
,,,-1.1860001E-3,560.000002384E-3,,,,,-1.1860001E-3,96.000000834E-3,
,,,-1.1850001E-3,552.000045776E-3,,,,,-1.1850001E-3,104.0000021E-3,
,,,-1.1840001E-3,552.000045776E-3,,,,,-1.1840001E-3,96.000000834E-3,
,,,-1.1830000E-3,536.000013351E-3,,,,,-1.1830000E-3,88.000006974E-3,
,,,-1.1820002E-3,536.000013351E-3,,,,,-1.1820002E-3,96.000000834E-3,
,,,-1.1810001E-3,520.000040531E-3,,,,,-1.1810001E-3,88.000006974E-3,
,,,-1.1800001E-3,520.000040531E-3,,,,,-1.1800001E-3,88.000006974E-3,
,,,-1.1790001E-3,504.000008106E-3,,,,,-1.1790001E-3,88.000006974E-3,
,,,-1.1780001E-3,496.000021696E-3,,,,,-1.1780001E-3,88.000006974E-3,
,,,-1.1770001E-3,504.000008106E-3,,,,,-1.1770001E-3,112.0000035E-3,
,,,-1.1760001E-3,472.000032663E-3,,,,,-1.1760001E-3,96.000000834E-3,
,,,-1.1750001E-3,416.000008583E-3,,,,,-1.1750001E-3,80.000005662E-3,
,,,-1.1740001E-3,448.000013828E-3,,,,,-1.1740001E-3,80.000005662E-3,
,,,-1.1730001E-3,416.000008583E-3,,,,,-1.1730001E-3,88.000006974E-3,
,,,-1.1720001E-3,416.000008583E-3,,,,,-1.1720001E-3,80.000005662E-3,
,,,-1.1710001E-3,408.000022173E-3,,,,,-1.1710001E-3,160.00001132E-3,
,,,-1.1700001E-3,400.00000596E-3,,,,,-1.1700001E-3,72.000004351E-3,
,,,-1.1690001E-3,376.00001693E-3,,,,,-1.1690001E-3,72.000004351E-3,
,,,-1.1680000E-3,352.00002789E-3,,,,,-1.1680000E-3,64.000003040E-3,
,,,-1.1670000E-3,336.00002527E-3,,,,,-1.1670000E-3,56.000001729E-3,
,,,-1.1660001E-3,304.00002003E-3,,,,,-1.1660001E-3,48.00000042E-3,
,,,-1.1650001E-3,296.00000381E-3,,,,,-1.1650001E-3,56.000001729E-3,
,,,-1.1640001E-3,263.99999857E-3,,,,,-1.1640001E-3,56.000001729E-3,
,,,-1.1630001E-3,256.00001216E-3,,,,,-1.1630001E-3,48.00000042E-3,
,,,-1.1620001E-3,208.00000429E-3,,,,,-1.1620001E-3,48.00000042E-3,
,,,-1.1610001E-3,208.00000429E-3,,,,,-1.1610001E-3,32.00000152E-3,
,,,-1.1600001E-3,176.00001395E-3,,,,,-1.1600001E-3,32.00000152E-3,
,,,-1.1590001E-3,160.00001132E-3,,,,,-1.1590001E-3,48.00000042E-3,
,,,-1.1580001E-3,136.0000074E-3,,,,,-1.1580001E-3,32.00000152E-3,
,,,-1.1570001E-3,104.0000021E-3,,,,,-1.1570001E-3,16.0000008E-3,
,,,-1.1560001E-3,96.000000834E-3,,,,,-1.1560001E-3,16.0000008E-3,
,,,-1.1550001E-3,72.000004351E-3,,,,,-1.1550001E-3,24.00000021E-3,
,,,-1.1540001E-3,48.00000042E-3,,,,,-1.1540001E-3,-8.000000380E-3,
,,,-1.1530000E-3,16.0000008E-3,,,,,-1.1530000E-3,8.000000380E-3,
,,,-1.1520000E-3,0.0,,,,,-1.1520000E-3,8.000000380E-3,
,,,-1.1510001E-3,-32.00000152E-3,,,,,-1.1510001E-3,-8.000000380E-3,
,,,-1.1500001E-3,-48.00000042E-3,,,,,-1.1500001E-3,0.0,
,,,-1.1490001E-3,-80.000005662E-3,,,,,-1.1490001E-3,-8.000000380E-3,
,,,-1.1480001E-3,-96.000000834E-3,,,,,-1.1480001E-3,0.0,
,,,-1.1470001E-3,-128.0000061E-3,,,,,-1.1470001E-3,-24.00000021E-3,
,,,-1.1460001E-3,-152.00001001E-3,,,,,-1.1460001E-3,-8.000000380E-3,
,,,-1.1450001E-3,-184.00001526E-3,,,,,-1.1450001E-3,-16.0000008E-3,
,,,-1.1440001E-3,-176.00001395E-3,,,,,-1.1440001E-3,-24.00000021E-3,
,,,-1.1430001E-3,-208.00000429E-3,,,,,-1.1430001E-3,-16.0000008E-3,
,,,-1.1420001E-3,-208.00000429E-3,,,,,-1.1420001E-3,-32.00000152E-3,
,,,-1.1410001E-3,-256.00001216E-3,,,,,-1.1410001E-3,-24.00000021E-3,
,,,-1.1400001E-3,-240.00000954E-3,,,,,-1.1400001E-3,-40.00000283E-3,
,,,-1.1390001E-3,-296.00000381E-3,,,,,-1.1390001E-3,-48.00000042E-3,
,,,-1.1380001E-3,-328.00000906E-3,,,,,-1.1380001E-3,-48.00000042E-3,
,,,-1.1370000E-3,-352.00002789E-3,,,,,-1.1370000E-3,-48.00000042E-3,
,,,-1.1360002E-3,-360.00001431E-3,,,,,-1.1360002E-3,-56.000001729E-3,
,,,-1.1350001E-3,-376.00001693E-3,,,,,-1.1350001E-3,-56.000001729E-3,
,,,-1.1340001E-3,-400.00000596E-3,,,,,-1.1340001E-3,-56.000001729E-3,
,,,-1.1330001E-3,-408.000022173E-3,,,,,-1.1330001E-3,-64.000003040E-3,
,,,-1.1320001E-3,-416.000008583E-3,,,,,-1.1320001E-3,-56.000001729E-3,
,,,-1.1310001E-3,-448.000013828E-3,,,,,-1.1310001E-3,-56.000001729E-3,
,,,-1.1300001E-3,-456.000030041E-3,,,,,-1.1300001E-3,-72.000004351E-3,
,,,-1.1290001E-3,-464.000016451E-3,,,,,-1.1290001E-3,-88.000006974E-3,
,,,-1.1280001E-3,-472.000032663E-3,,,,,-1.1280001E-3,-80.000005662E-3,
,,,-1.1270001E-3,-488.000035286E-3,,,,,-1.1270001E-3,-72.000004351E-3,
,,,-1.1260001E-3,-504.000008106E-3,,,,,-1.1260001E-3,-80.000005662E-3,
,,,-1.1250001E-3,-512.000024319E-3,,,,,-1.1250001E-3,-88.000006974E-3,
,,,-1.1240001E-3,-536.000013351E-3,,,,,-1.1240001E-3,-96.000000834E-3,
,,,-1.1230001E-3,-536.000013351E-3,,,,,-1.1230001E-3,-80.000005662E-3,
,,,-1.1220000E-3,-544.000029564E-3,,,,,-1.1220000E-3,-96.000000834E-3,
,,,-1.1210002E-3,-552.000045776E-3,,,,,-1.1210002E-3,-96.000000834E-3,
,,,-1.1200001E-3,-568.000018597E-3,,,,,-1.1200001E-3,-88.000006974E-3,
,,,-1.1190001E-3,-576.000034809E-3,,,,,-1.1190001E-3,-88.000006974E-3,
,,,-1.1180001E-3,-568.000018597E-3,,,,,-1.1180001E-3,-88.000006974E-3,
,,,-1.1170001E-3,-568.000018597E-3,,,,,-1.1170001E-3,-88.000006974E-3,
,,,-1.1160001E-3,-576.000034809E-3,,,,,-1.1160001E-3,-104.0000021E-3,
,,,-1.1150001E-3,-584.000051022E-3,,,,,-1.1150001E-3,-88.000006974E-3,
,,,-1.1140001E-3,-568.000018597E-3,,,,,-1.1140001E-3,-88.000006974E-3,
,,,-1.1130001E-3,-568.000018597E-3,,,,,-1.1130001E-3,-104.0000021E-3,
,,,-1.1120001E-3,-576.000034809E-3,,,,,-1.1120001E-3,-88.000006974E-3,
,,,-1.1110001E-3,-560.000002384E-3,,,,,-1.1110001E-3,-112.0000035E-3,
,,,-1.1100001E-3,-568.000018597E-3,,,,,-1.1100001E-3,-96.000000834E-3,
,,,-1.1090001E-3,-568.000018597E-3,,,,,-1.1090001E-3,-96.000000834E-3,
,,,-1.1080001E-3,-560.000002384E-3,,,,,-1.1080001E-3,-88.000006974E-3,
,,,-1.1070000E-3,-560.000002384E-3,,,,,-1.1070000E-3,-104.0000021E-3,
,,,-1.1060000E-3,-552.000045776E-3,,,,,-1.1060000E-3,-88.000006974E-3,
,,,-1.1050001E-3,-544.000029564E-3,,,,,-1.1050001E-3,-88.000006974E-3,
,,,-1.1040001E-3,-536.000013351E-3,,,,,-1.1040001E-3,-88.000006974E-3,
,,,-1.1030001E-3,-536.000013351E-3,,,,,-1.1030001E-3,-80.000005662E-3,
,,,-1.1020001E-3,-496.000021696E-3,,,,,-1.1020001E-3,-88.000006974E-3,
,,,-1.1010001E-3,-504.000008106E-3,,,,,-1.1010001E-3,-88.000006974E-3,
,,,-1.1000001E-3,-480.000019073E-3,,,,,-1.1000001E-3,-80.000005662E-3,
,,,-1.0990001E-3,-472.000032663E-3,,,,,-1.0990001E-3,-72.000004351E-3,
,,,-1.0980001E-3,-472.000032663E-3,,,,,-1.0980001E-3,-80.000005662E-3,
,,,-1.0970001E-3,-448.000013828E-3,,,,,-1.0970001E-3,-80.000005662E-3,
,,,-1.0960001E-3,-416.000008583E-3,,,,,-1.0960001E-3,-72.000004351E-3,
,,,-1.0950001E-3,-408.000022173E-3,,,,,-1.0950001E-3,-80.000005662E-3,
,,,-1.0940001E-3,-400.00000596E-3,,,,,-1.0940001E-3,-64.000003040E-3,
,,,-1.0930001E-3,-400.00000596E-3,,,,,-1.0930001E-3,-64.000003040E-3,
,,,-1.0920000E-3,-360.00001431E-3,,,,,-1.0920000E-3,-64.000003040E-3,
,,,-1.0910000E-3,-352.00002789E-3,,,,,-1.0910000E-3,-56.000001729E-3,
,,,-1.0900002E-3,-320.00002265E-3,,,,,-1.0900002E-3,-56.000001729E-3,
,,,-1.0890001E-3,-304.00002003E-3,,,,,-1.0890001E-3,-48.00000042E-3,
,,,-1.0880001E-3,-288.00001740E-3,,,,,-1.0880001E-3,-56.000001729E-3,
,,,-1.0870001E-3,-263.99999857E-3,,,,,-1.0870001E-3,-48.00000042E-3,
,,,-1.0860001E-3,-240.00000954E-3,,,,,-1.0860001E-3,-48.00000042E-3,
,,,-1.0850001E-3,-216.00000560E-3,,,,,-1.0850001E-3,-32.00000152E-3,
,,,-1.0840001E-3,-192.00000167E-3,,,,,-1.0840001E-3,-32.00000152E-3,
,,,-1.0830001E-3,-176.00001395E-3,,,,,-1.0830001E-3,-32.00000152E-3,
,,,-1.0820001E-3,-144.0000087E-3,,,,,-1.0820001E-3,-32.00000152E-3,
,,,-1.0810001E-3,-136.0000074E-3,,,,,-1.0810001E-3,-24.00000021E-3,
,,,-1.0800001E-3,-104.0000021E-3,,,,,-1.0800001E-3,-8.000000380E-3,
,,,-1.0790001E-3,-80.000005662E-3,,,,,-1.0790001E-3,-24.00000021E-3,
,,,-1.0780001E-3,-56.000001729E-3,,,,,-1.0780001E-3,-8.000000380E-3,
,,,-1.0770001E-3,-56.000001729E-3,,,,,-1.0770001E-3,-16.0000008E-3,
,,,-1.0760000E-3,-16.0000008E-3,,,,,-1.0760000E-3,-8.000000380E-3,
,,,-1.0750002E-3,8.000000380E-3,,,,,-1.0750002E-3,-40.00000283E-3,
,,,-1.0740001E-3,40.00000283E-3,,,,,-1.0740001E-3,0.0,
,,,-1.0730001E-3,40.00000283E-3,,,,,-1.0730001E-3,16.0000008E-3,
,,,-1.0720001E-3,80.000005662E-3,,,,,-1.0720001E-3,0.0,
,,,-1.0710001E-3,96.000000834E-3,,,,,-1.0710001E-3,8.000000380E-3,
,,,-1.0700001E-3,128.0000061E-3,,,,,-1.0700001E-3,16.0000008E-3,
,,,-1.0690001E-3,152.00001001E-3,,,,,-1.0690001E-3,24.00000021E-3,
,,,-1.0680001E-3,176.00001395E-3,,,,,-1.0680001E-3,32.00000152E-3,
,,,-1.0670001E-3,200.00000298E-3,,,,,-1.0670001E-3,24.00000021E-3,
,,,-1.0660001E-3,224.00000691E-3,,,,,-1.0660001E-3,40.00000283E-3,
,,,-1.0650001E-3,248.00001085E-3,,,,,-1.0650001E-3,32.00000152E-3,
,,,-1.0640001E-3,263.99999857E-3,,,,,-1.0640001E-3,32.00000152E-3,
,,,-1.0630001E-3,272.00001478E-3,,,,,-1.0630001E-3,40.00000283E-3,
,,,-1.0620001E-3,312.00000644E-3,,,,,-1.0620001E-3,48.00000042E-3,
,,,-1.0610000E-3,336.00002527E-3,,,,,-1.0610000E-3,48.00000042E-3,
,,,-1.0600000E-3,328.00000906E-3,,,,,-1.0600000E-3,56.000001729E-3,
,,,-1.0590001E-3,360.00001431E-3,,,,,-1.0590001E-3,56.000001729E-3,
,,,-1.0580001E-3,384.00000334E-3,,,,,-1.0580001E-3,72.000004351E-3,
,,,-1.0570001E-3,408.000022173E-3,,,,,-1.0570001E-3,48.00000042E-3,
,,,-1.0560001E-3,408.000022173E-3,,,,,-1.0560001E-3,64.000003040E-3,
,,,-1.0550001E-3,440.000027418E-3,,,,,-1.0550001E-3,64.000003040E-3,
,,,-1.0540001E-3,440.000027418E-3,,,,,-1.0540001E-3,64.000003040E-3,
,,,-1.0530001E-3,456.000030041E-3,,,,,-1.0530001E-3,80.000005662E-3,
,,,-1.0520001E-3,472.000032663E-3,,,,,-1.0520001E-3,80.000005662E-3,
,,,-1.0510001E-3,488.000035286E-3,,,,,-1.0510001E-3,88.000006974E-3,
,,,-1.0500001E-3,496.000021696E-3,,,,,-1.0500001E-3,88.000006974E-3,
,,,-1.0490001E-3,504.000008106E-3,,,,,-1.0490001E-3,88.000006974E-3,
,,,-1.0480001E-3,520.000040531E-3,,,,,-1.0480001E-3,96.000000834E-3,
,,,-1.0470001E-3,536.000013351E-3,,,,,-1.0470001E-3,96.000000834E-3,
,,,-1.0460000E-3,544.000029564E-3,,,,,-1.0460000E-3,96.000000834E-3,
,,,-1.0450000E-3,544.000029564E-3,,,,,-1.0450000E-3,88.000006974E-3,
,,,-1.0440001E-3,552.000045776E-3,,,,,-1.0440001E-3,80.000005662E-3,
,,,-1.0430001E-3,552.000045776E-3,,,,,-1.0430001E-3,88.000006974E-3,
,,,-1.0420001E-3,552.000045776E-3,,,,,-1.0420001E-3,96.000000834E-3,
,,,-1.0410001E-3,568.000018597E-3,,,,,-1.0410001E-3,96.000000834E-3,
,,,-1.0400001E-3,560.000002384E-3,,,,,-1.0400001E-3,112.0000035E-3,
,,,-1.0390001E-3,568.000018597E-3,,,,,-1.0390001E-3,96.000000834E-3,
,,,-1.0380001E-3,560.000002384E-3,,,,,-1.0380001E-3,96.000000834E-3,
,,,-1.0370001E-3,576.000034809E-3,,,,,-1.0370001E-3,96.000000834E-3,
,,,-1.0360001E-3,568.000018597E-3,,,,,-1.0360001E-3,96.000000834E-3,
,,,-1.0350001E-3,568.000018597E-3,,,,,-1.0350001E-3,96.000000834E-3,
,,,-1.0340001E-3,568.000018597E-3,,,,,-1.0340001E-3,96.000000834E-3,
,,,-1.0330001E-3,560.000002384E-3,,,,,-1.0330001E-3,96.000000834E-3,
,,,-1.0320001E-3,544.000029564E-3,,,,,-1.0320001E-3,96.000000834E-3,
,,,-1.0310001E-3,544.000029564E-3,,,,,-1.0310001E-3,88.000006974E-3,
,,,-1.0300000E-3,520.000040531E-3,,,,,-1.0300000E-3,88.000006974E-3,
,,,-1.0290002E-3,544.000029564E-3,,,,,-1.0290002E-3,88.000006974E-3,
,,,-1.0280001E-3,520.000040531E-3,,,,,-1.0280001E-3,88.000006974E-3,
,,,-1.0270001E-3,520.000040531E-3,,,,,-1.0270001E-3,104.0000021E-3,
,,,-1.0260001E-3,504.000008106E-3,,,,,-1.0260001E-3,88.000006974E-3,
,,,-1.0250001E-3,480.000019073E-3,,,,,-1.0250001E-3,96.000000834E-3,
,,,-1.0240001E-3,488.000035286E-3,,,,,-1.0240001E-3,80.000005662E-3,
,,,-1.0230001E-3,472.000032663E-3,,,,,-1.0230001E-3,88.000006974E-3,
,,,-1.0220001E-3,464.000016451E-3,,,,,-1.0220001E-3,80.000005662E-3,
,,,-1.0210001E-3,440.000027418E-3,,,,,-1.0210001E-3,72.000004351E-3,
,,,-1.0200001E-3,440.000027418E-3,,,,,-1.0200001E-3,80.000005662E-3,
,,,-1.0190001E-3,384.00000334E-3,,,,,-1.0190001E-3,72.000004351E-3,
,,,-1.0180001E-3,408.000022173E-3,,,,,-1.0180001E-3,64.000003040E-3,
,,,-1.0170001E-3,392.00001955E-3,,,,,-1.0170001E-3,64.000003040E-3,
,,,-1.0160001E-3,352.00002789E-3,,,,,-1.0160001E-3,64.000003040E-3,
,,,-1.0150000E-3,344.00001168E-3,,,,,-1.0150000E-3,64.000003040E-3,
,,,-1.0140002E-3,336.00002527E-3,,,,,-1.0140002E-3,56.000001729E-3,
,,,-1.0130001E-3,304.00002003E-3,,,,,-1.0130001E-3,56.000001729E-3,
,,,-1.0120001E-3,280.00000119E-3,,,,,-1.0120001E-3,56.000001729E-3,
,,,-1.0110001E-3,272.00001478E-3,,,,,-1.0110001E-3,48.00000042E-3,
,,,-1.0100001E-3,240.00000954E-3,,,,,-1.0100001E-3,48.00000042E-3,
,,,-1.0090001E-3,208.00000429E-3,,,,,-1.0090001E-3,56.000001729E-3,
,,,-1.0080001E-3,208.00000429E-3,,,,,-1.0080001E-3,24.00000021E-3,
,,,-1.0070001E-3,184.00001526E-3,,,,,-1.0070001E-3,48.00000042E-3,
,,,-1.0060001E-3,152.00001001E-3,,,,,-1.0060001E-3,32.00000152E-3,
,,,-1.0050001E-3,120.0000048E-3,,,,,-1.0050001E-3,32.00000152E-3,
,,,-1.0040001E-3,104.0000021E-3,,,,,-1.0040001E-3,32.00000152E-3,
,,,-1.0030001E-3,88.000006974E-3,,,,,-1.0030001E-3,24.00000021E-3,
,,,-1.0020001E-3,64.000003040E-3,,,,,-1.0020001E-3,24.00000021E-3,
,,,-1.0010001E-3,32.00000152E-3,,,,,-1.0010001E-3,8.000000380E-3,
,,,-1.0000000E-3,16.0000008E-3,,,,,-1.0000000E-3,16.0000008E-3,
,,,-999.000039883E-6,-24.00000021E-3,,,,,-999.000039883E-6,8.000000380E-3,
,,,-998.000148684E-6,-32.00000152E-3,,,,,-998.000148684E-6,24.00000021E-3,
,,,-997.000141069E-6,-64.000003040E-3,,,,,-997.000141069E-6,0.0,
,,,-996.000133455E-6,-80.000005662E-3,,,,,-996.000133455E-6,0.0,
,,,-995.000125840E-6,-96.000000834E-3,,,,,-995.000125840E-6,-24.00000021E-3,
,,,-994.000118226E-6,-176.00001395E-3,,,,,-994.000118226E-6,8.000000380E-3,
,,,-993.000110611E-6,-160.00001132E-3,,,,,-993.000110611E-6,-24.00000021E-3,
,,,-992.000102997E-6,-168.00001264E-3,,,,,-992.000102997E-6,-24.00000021E-3,
,,,-991.000095382E-6,-192.00000167E-3,,,,,-991.000095382E-6,-24.00000021E-3,
,,,-990.000087768E-6,-216.00000560E-3,,,,,-990.000087768E-6,-32.00000152E-3,
,,,-989.000080153E-6,-248.00001085E-3,,,,,-989.000080153E-6,-32.00000152E-3,
,,,-988.000072539E-6,-256.00001216E-3,,,,,-988.000072539E-6,-24.00000021E-3,
,,,-987.000064924E-6,-272.00001478E-3,,,,,-987.000064924E-6,-48.00000042E-3,
,,,-986.000057310E-6,-304.00002003E-3,,,,,-986.000057310E-6,-48.00000042E-3,
,,,-985.000049695E-6,-328.00000906E-3,,,,,-985.000049695E-6,-40.00000283E-3,
,,,-984.000042081E-6,-344.00001168E-3,,,,,-984.000042081E-6,-40.00000283E-3,
,,,-983.000150882E-6,-368.00003052E-3,,,,,-983.000150882E-6,-56.000001729E-3,
,,,-982.000143267E-6,-376.00001693E-3,,,,,-982.000143267E-6,-56.000001729E-3,
,,,-981.000135653E-6,-400.00000596E-3,,,,,-981.000135653E-6,-72.000004351E-3,
,,,-980.000128038E-6,-408.000022173E-3,,,,,-980.000128038E-6,-64.000003040E-3,
,,,-979.000120424E-6,-424.000024796E-3,,,,,-979.000120424E-6,-72.000004351E-3,
,,,-978.000112809E-6,-440.000027418E-3,,,,,-978.000112809E-6,-64.000003040E-3,
,,,-977.000105195E-6,-448.000013828E-3,,,,,-977.000105195E-6,-72.000004351E-3,
,,,-976.000097580E-6,-456.000030041E-3,,,,,-976.000097580E-6,-64.000003040E-3,
,,,-975.000089966E-6,-480.000019073E-3,,,,,-975.000089966E-6,-152.00001001E-3,
,,,-974.000082351E-6,-512.000024319E-3,,,,,-974.000082351E-6,-80.000005662E-3,
,,,-973.000074737E-6,-504.000008106E-3,,,,,-973.000074737E-6,-80.000005662E-3,
,,,-972.000125330E-6,-527.999997139E-3,,,,,-972.000125330E-6,-96.000000834E-3,
,,,-971.000117715E-6,-536.000013351E-3,,,,,-971.000117715E-6,-88.000006974E-3,
