data/angle/4.95/60.csv

Record Length,2500,Points,-1.2510001E-3,-1.3000000,,Record Length,2500,Points,-1.2510001E-3,39.99999911E-3,
Sample Interval,1.000000E-6,s,-1.2500001E-3,-1.3000000,,Sample Interval,1.000000E-6,s,-1.2500001E-3,39.99999911E-3,
Trigger Point,1.2510002E3,Samples,-1.2490001E-3,-1.2400000,,Trigger Point,1.2510002E3,Samples,-1.2490001E-3,39.99999911E-3,
,,,-1.2480001E-3,-1.2400000,,,,,-1.2480001E-3,39.99999911E-3,
,,,-1.2470001E-3,-1.1999999,,,,,-1.2470001E-3,39.99999911E-3,
,,,-1.2460001E-3,-1.1600000,,,,,-1.2460001E-3,39.99999911E-3,
Source,CH1,,-1.2450001E-3,-1.1600000,,Source,CH2,,-1.2450001E-3,59.999998659E-3,
Vertical Units,Volts,,-1.2440000E-3,-1.1200000,,Vertical Units,Volts,,-1.2440000E-3,59.999998659E-3,
Vertical Scale,499.999988824E-3,,-1.2430002E-3,-1.1000000,,Vertical Scale,499.999988824E-3,,-1.2430002E-3,39.99999911E-3,
Vertical Offset,0,,-1.2420001E-3,-1.0400000,,Vertical Offset,0,,-1.2420001E-3,59.999998659E-3,
Horizontal Units,s,,-1.2410001E-3,-1.0200000,,Horizontal Units,s,,-1.2410001E-3,39.99999911E-3,
Horizontal Scale,249.99999937E-6,,-1.2400001E-3,-979.999959469E-3,,Horizontal Scale,249.99999937E-6,,-1.2400001E-3,39.99999911E-3,
Pt Fmt,Y,,-1.2390001E-3,-959.999978542E-3,,Pt Fmt,Y,,-1.2390001E-3,39.99999911E-3,
Yzero,0.0,,-1.2380001E-3,-879.999995232E-3,,Yzero,40.00000000E-3,,-1.2380001E-3,59.999998659E-3,
Probe Atten,10.0000000,,-1.2370001E-3,-879.999995232E-3,,Probe Atten,10.0000000,,-1.2370001E-3,59.999998659E-3,
,,,-1.2360001E-3,-839.999973774E-3,,,,,-1.2360001E-3,39.99999911E-3,
Note,TBS 1052B-EDU - 16:25:07   02-Jun-22,,-1.2350001E-3,-819.999992847E-3,,Note,TBS 1052B-EDU - 16:25:07   02-Jun-22,,-1.2350001E-3,39.99999911E-3,
,,,-1.2340001E-3,-759.999990463E-3,,,,,-1.2340001E-3,39.99999911E-3,
,,,-1.2330001E-3,-719.999969006E-3,,,,,-1.2330001E-3,59.999998659E-3,
,,,-1.2320001E-3,-659.999966621E-3,,,,,-1.2320001E-3,39.99999911E-3,
,,,-1.2310001E-3,-620.000004768E-3,,,,,-1.2310001E-3,39.99999911E-3,
,,,-1.2300001E-3,-620.000004768E-3,,,,,-1.2300001E-3,59.999998659E-3,
,,,-1.2290000E-3,-539.999961853E-3,,,,,-1.2290000E-3,39.99999911E-3,
,,,-1.2280002E-3,-500.000000000E-3,,,,,-1.2280002E-3,19.9999996E-3,
,,,-1.2270001E-3,-459.999978542E-3,,,,,-1.2270001E-3,39.99999911E-3,
,,,-1.2260001E-3,-419.999986887E-3,,,,,-1.2260001E-3,39.99999911E-3,
,,,-1.2250001E-3,-359.99998450E-3,,,,,-1.2250001E-3,19.9999996E-3,
,,,-1.2240001E-3,-319.99999285E-3,,,,,-1.2240001E-3,39.99999911E-3,
,,,-1.2230001E-3,-280.00000119E-3,,,,,-1.2230001E-3,39.99999911E-3,
,,,-1.2220001E-3,-239.99999464E-3,,,,,-1.2220001E-3,39.99999911E-3,
,,,-1.2210001E-3,-179.99999225E-3,,,,,-1.2210001E-3,39.99999911E-3,
,,,-1.2200001E-3,-179.99999225E-3,,,,,-1.2200001E-3,39.99999911E-3,
,,,-1.2190001E-3,-119.9999973E-3,,,,,-1.2190001E-3,39.99999911E-3,
,,,-1.2180001E-3,-39.99999911E-3,,,,,-1.2180001E-3,59.999998659E-3,
,,,-1.2170001E-3,-19.9999996E-3,,,,,-1.2170001E-3,-59.999998659E-3,
,,,-1.2160001E-3,39.99999911E-3,,,,,-1.2160001E-3,39.99999911E-3,
,,,-1.2150001E-3,79.999998212E-3,,,,,-1.2150001E-3,39.99999911E-3,
,,,-1.2140000E-3,140.0000006E-3,,,,,-1.2140000E-3,19.9999996E-3,
,,,-1.2130000E-3,199.99998808E-3,,,,,-1.2130000E-3,39.99999911E-3,
,,,-1.2120001E-3,239.99999464E-3,,,,,-1.2120001E-3,39.99999911E-3,
,,,-1.2110001E-3,259.99999046E-3,,,,,-1.2110001E-3,19.9999996E-3,
,,,-1.2100001E-3,299.99998212E-3,,,,,-1.2100001E-3,19.9999996E-3,
,,,-1.2090001E-3,359.99998450E-3,,,,,-1.2090001E-3,19.9999996E-3,
,,,-1.2080001E-3,419.999986887E-3,,,,,-1.2080001E-3,0.0,
,,,-1.2070001E-3,439.999997616E-3,,,,,-1.2070001E-3,39.99999911E-3,
,,,-1.2060001E-3,479.999989271E-3,,,,,-1.2060001E-3,19.9999996E-3,
,,,-1.2050001E-3,539.999961853E-3,,,,,-1.2050001E-3,19.9999996E-3,
,,,-1.2040001E-3,579.999983311E-3,,,,,-1.2040001E-3,19.9999996E-3,
,,,-1.2030001E-3,639.999985695E-3,,,,,-1.2030001E-3,19.9999996E-3,
,,,-1.2020001E-3,659.999966621E-3,,,,,-1.2020001E-3,19.9999996E-3,
,,,-1.2010001E-3,699.999988079E-3,,,,,-1.2010001E-3,19.9999996E-3,
,,,-1.2000001E-3,759.999990463E-3,,,,,-1.2000001E-3,0.0,
,,,-1.1990000E-3,779.999971390E-3,,,,,-1.1990000E-3,19.9999996E-3,
,,,-1.1980000E-3,819.999992847E-3,,,,,-1.1980000E-3,19.9999996E-3,
,,,-1.1970002E-3,859.999954700E-3,,,,,-1.1970002E-3,0.0,
,,,-1.1960001E-3,899.999976158E-3,,,,,-1.1960001E-3,0.0,
,,,-1.1950001E-3,939.999997616E-3,,,,,-1.1950001E-3,19.9999996E-3,
,,,-1.1940001E-3,959.999978542E-3,,,,,-1.1940001E-3,0.0,
,,,-1.1930001E-3,1.000000,,,,,-1.1930001E-3,0.0,
,,,-1.1920001E-3,1.0200000,,,,,-1.1920001E-3,0.0,
,,,-1.1910001E-3,1.0799999,,,,,-1.1910001E-3,39.99999911E-3,
,,,-1.1900001E-3,1.1000000,,,,,-1.1900001E-3,-19.9999996E-3,
,,,-1.1890001E-3,1.1400000,,,,,-1.1890001E-3,19.9999996E-3,
,,,-1.1880001E-3,1.1600000,,,,,-1.1880001E-3,0.0,
,,,-1.1870001E-3,1.1799999,,,,,-1.1870001E-3,0.0,
,,,-1.1860001E-3,1.2200000,,,,,-1.1860001E-3,-19.9999996E-3,
,,,-1.1850001E-3,1.2400000,,,,,-1.1850001E-3,19.9999996E-3,
,,,-1.1840001E-3,1.2800000,,,,,-1.1840001E-3,0.0,
,,,-1.1830000E-3,1.3000000,,,,,-1.1830000E-3,-19.9999996E-3,
,,,-1.1820002E-3,1.3000000,,,,,-1.1820002E-3,0.0,
,,,-1.1810001E-3,1.3199999,,,,,-1.1810001E-3,-19.9999996E-3,
,,,-1.1800001E-3,1.3600000,,,,,-1.1800001E-3,-19.9999996E-3,
,,,-1.1790001E-3,1.3800000,,,,,-1.1790001E-3,0.0,
,,,-1.1780001E-3,1.3800000,,,,,-1.1780001E-3,0.0,
,,,-1.1770001E-3,1.4000000,,,,,-1.1770001E-3,-19.9999996E-3,
,,,-1.1760001E-3,1.4200000,,,,,-1.1760001E-3,0.0,
,,,-1.1750001E-3,1.4200000,,,,,-1.1750001E-3,0.0,
,,,-1.1740001E-3,1.4399999,,,,,-1.1740001E-3,-19.9999996E-3,
,,,-1.1730001E-3,1.4599999,,,,,-1.1730001E-3,-19.9999996E-3,
,,,-1.1720001E-3,1.4599999,,,,,-1.1720001E-3,-19.9999996E-3,
,,,-1.1710001E-3,1.4599999,,,,,-1.1710001E-3,-19.9999996E-3,
,,,-1.1700001E-3,1.4800000,,,,,-1.1700001E-3,-19.9999996E-3,
,,,-1.1690001E-3,1.4800000,,,,,-1.1690001E-3,-19.9999996E-3,
,,,-1.1680000E-3,1.4800000,,,,,-1.1680000E-3,-39.99999911E-3,
,,,-1.1670000E-3,1.4800000,,,,,-1.1670000E-3,-19.9999996E-3,
,,,-1.1660001E-3,1.4800000,,,,,-1.1660001E-3,-19.9999996E-3,
,,,-1.1650001E-3,1.4800000,,,,,-1.1650001E-3,-19.9999996E-3,
,,,-1.1640001E-3,1.4800000,,,,,-1.1640001E-3,-19.9999996E-3,
,,,-1.1630001E-3,1.4800000,,,,,-1.1630001E-3,-39.99999911E-3,
,,,-1.1620001E-3,1.4599999,,,,,-1.1620001E-3,-39.99999911E-3,
,,,-1.1610001E-3,1.4399999,,,,,-1.1610001E-3,-39.99999911E-3,
,,,-1.1600001E-3,1.4599999,,,,,-1.1600001E-3,-39.99999911E-3,
,,,-1.1590001E-3,1.4200000,,,,,-1.1590001E-3,-39.99999911E-3,
,,,-1.1580001E-3,1.4200000,,,,,-1.1580001E-3,-19.9999996E-3,
,,,-1.1570001E-3,1.4000000,,,,,-1.1570001E-3,-39.99999911E-3,
,,,-1.1560001E-3,1.4000000,,,,,-1.1560001E-3,-39.99999911E-3,
,,,-1.1550001E-3,1.4000000,,,,,-1.1550001E-3,-39.99999911E-3,
,,,-1.1540001E-3,1.3600000,,,,,-1.1540001E-3,-39.99999911E-3,
,,,-1.1530000E-3,1.3600000,,,,,-1.1530000E-3,-39.99999911E-3,
,,,-1.1520000E-3,1.3199999,,,,,-1.1520000E-3,0.0,
,,,-1.1510001E-3,1.3199999,,,,,-1.1510001E-3,-59.999998659E-3,
,,,-1.1500001E-3,1.3000000,,,,,-1.1500001E-3,-39.99999911E-3,
,,,-1.1490001E-3,1.2600000,,,,,-1.1490001E-3,-39.99999911E-3,
,,,-1.1480001E-3,1.2200000,,,,,-1.1480001E-3,-19.9999996E-3,
,,,-1.1470001E-3,1.1999999,,,,,-1.1470001E-3,-39.99999911E-3,
,,,-1.1460001E-3,1.1799999,,,,,-1.1460001E-3,-39.99999911E-3,
,,,-1.1450001E-3,1.1400000,,,,,-1.1450001E-3,-39.99999911E-3,
,,,-1.1440001E-3,1.1200000,,,,,-1.1440001E-3,-39.99999911E-3,
,,,-1.1430001E-3,1.1000000,,,,,-1.1430001E-3,-39.99999911E-3,
,,,-1.1420001E-3,1.0400000,,,,,-1.1420001E-3,-39.99999911E-3,
,,,-1.1410001E-3,1.0599999,,,,,-1.1410001E-3,-59.999998659E-3,
,,,-1.1400001E-3,1.000000,,,,,-1.1400001E-3,-39.99999911E-3,
,,,-1.1390001E-3,979.999959469E-3,,,,,-1.1390001E-3,-39.99999911E-3,
,,,-1.1380001E-3,919.999957085E-3,,,,,-1.1380001E-3,-39.99999911E-3,
,,,-1.1370000E-3,879.999995232E-3,,,,,-1.1370000E-3,-39.99999911E-3,
,,,-1.1360002E-3,859.999954700E-3,,,,,-1.1360002E-3,-39.99999911E-3,
,,,-1.1350001E-3,819.999992847E-3,,,,,-1.1350001E-3,-39.99999911E-3,
,,,-1.1340001E-3,779.999971390E-3,,,,,-1.1340001E-3,-59.999998659E-3,
,,,-1.1330001E-3,759.999990463E-3,,,,,-1.1330001E-3,-39.99999911E-3,
,,,-1.1320001E-3,699.999988079E-3,,,,,-1.1320001E-3,-39.99999911E-3,
,,,-1.1310001E-3,659.999966621E-3,,,,,-1.1310001E-3,-39.99999911E-3,
,,,-1.1300001E-3,639.999985695E-3,,,,,-1.1300001E-3,-39.99999911E-3,
,,,-1.1290001E-3,579.999983311E-3,,,,,-1.1290001E-3,-39.99999911E-3,
,,,-1.1280001E-3,519.999980927E-3,,,,,-1.1280001E-3,-39.99999911E-3,
,,,-1.1270001E-3,500.000000000E-3,,,,,-1.1270001E-3,-39.99999911E-3,
,,,-1.1260001E-3,459.999978542E-3,,,,,-1.1260001E-3,-39.99999911E-3,
,,,-1.1250001E-3,419.999986887E-3,,,,,-1.1250001E-3,-39.99999911E-3,
,,,-1.1240001E-3,340.00000358E-3,,,,,-1.1240001E-3,-59.999998659E-3,
,,,-1.1230001E-3,299.99998212E-3,,,,,-1.1230001E-3,-59.999998659E-3,
,,,-1.1220000E-3,280.00000119E-3,,,,,-1.1220000E-3,-39.99999911E-3,
,,,-1.1210002E-3,219.99999881E-3,,,,,-1.1210002E-3,-19.9999996E-3,
,,,-1.1200001E-3,179.99999225E-3,,,,,-1.1200001E-3,-39.99999911E-3,
,,,-1.1190001E-3,119.9999973E-3,,,,,-1.1190001E-3,-39.99999911E-3,
,,,-1.1180001E-3,79.999998212E-3,,,,,-1.1180001E-3,-39.99999911E-3,
,,,-1.1170001E-3,39.99999911E-3,,,,,-1.1170001E-3,-19.9999996E-3,
,,,-1.1160001E-3,-19.9999996E-3,,,,,-1.1160001E-3,-39.99999911E-3,
,,,-1.1150001E-3,-59.999998659E-3,,,,,-1.1150001E-3,-39.99999911E-3,
,,,-1.1140001E-3,-99.999994040E-3,,,,,-1.1140001E-3,-39.99999911E-3,
,,,-1.1130001E-3,-140.0000006E-3,,,,,-1.1130001E-3,-59.999998659E-3,
,,,-1.1120001E-3,-199.99998808E-3,,,,,-1.1120001E-3,-19.9999996E-3,
,,,-1.1110001E-3,-239.99999464E-3,,,,,-1.1110001E-3,-39.99999911E-3,
,,,-1.1100001E-3,-280.00000119E-3,,,,,-1.1100001E-3,-19.9999996E-3,
,,,-1.1090001E-3,-319.99999285E-3,,,,,-1.1090001E-3,-19.9999996E-3,
,,,-1.1080001E-3,-379.99999523E-3,,,,,-1.1080001E-3,-19.9999996E-3,
,,,-1.1070000E-3,-419.999986887E-3,,,,,-1.1070000E-3,-19.9999996E-3,
,,,-1.1060000E-3,-479.999989271E-3,,,,,-1.1060000E-3,-19.9999996E-3,
,,,-1.1050001E-3,-500.000000000E-3,,,,,-1.1050001E-3,0.0,
,,,-1.1040001E-3,-560.000002384E-3,,,,,-1.1040001E-3,-19.9999996E-3,
,,,-1.1030001E-3,-599.999964237E-3,,,,,-1.1030001E-3,0.0,
,,,-1.1020001E-3,-639.999985695E-3,,,,,-1.1020001E-3,-19.9999996E-3,
,,,-1.1010001E-3,-659.999966621E-3,,,,,-1.1010001E-3,0.0,
,,,-1.1000001E-3,-719.999969006E-3,,,,,-1.1000001E-3,-19.9999996E-3,
,,,-1.0990001E-3,-759.999990463E-3,,,,,-1.0990001E-3,-19.9999996E-3,
,,,-1.0980001E-3,-819.999992847E-3,,,,,-1.0980001E-3,-19.9999996E-3,
,,,-1.0970001E-3,-819.999992847E-3,,,,,-1.0970001E-3,0.0,
,,,-1.0960001E-3,-899.999976158E-3,,,,,-1.0960001E-3,0.0,
,,,-1.0950001E-3,-919.999957085E-3,,,,,-1.0950001E-3,0.0,
,,,-1.0940001E-3,-939.999997616E-3,,,,,-1.0940001E-3,-19.9999996E-3,
,,,-1.0930001E-3,-979.999959469E-3,,,,,-1.0930001E-3,0.0,
,,,-1.0920000E-3,-1.0400000,,,,,-1.0920000E-3,-19.9999996E-3,
,,,-1.0910000E-3,-1.0599999,,,,,-1.0910000E-3,0.0,
,,,-1.0900002E-3,-1.1000000,,,,,-1.0900002E-3,0.0,
,,,-1.0890001E-3,-1.1400000,,,,,-1.0890001E-3,0.0,
,,,-1.0880001E-3,-1.1400000,,,,,-1.0880001E-3,0.0,
,,,-1.0870001E-3,-1.1799999,,,,,-1.0870001E-3,0.0,
,,,-1.0860001E-3,-1.1999999,,,,,-1.0860001E-3,0.0,
,,,-1.0850001E-3,-1.2400000,,,,,-1.0850001E-3,0.0,
,,,-1.0840001E-3,-1.2600000,,,,,-1.0840001E-3,0.0,
,,,-1.0830001E-3,-1.2800000,,,,,-1.0830001E-3,0.0,
,,,-1.0820001E-3,-1.3000000,,,,,-1.0820001E-3,0.0,
,,,-1.0810001E-3,-1.3000000,,,,,-1.0810001E-3,0.0,
,,,-1.0800001E-3,-1.3399999,,,,,-1.0800001E-3,19.9999996E-3,
,,,-1.0790001E-3,-1.3600000,,,,,-1.0790001E-3,19.9999996E-3,
,,,-1.0780001E-3,-1.3800000,,,,,-1.0780001E-3,19.9999996E-3,
,,,-1.0770001E-3,-1.4000000,,,,,-1.0770001E-3,19.9999996E-3,
,,,-1.0760000E-3,-1.4000000,,,,,-1.0760000E-3,19.9999996E-3,
,,,-1.0750002E-3,-1.4399999,,,,,-1.0750002E-3,19.9999996E-3,
,,,-1.0740001E-3,-1.4599999,,,,,-1.0740001E-3,19.9999996E-3,
,,,-1.0730001E-3,-1.4599999,,,,,-1.0730001E-3,39.99999911E-3,
,,,-1.0720001E-3,-1.4599999,,,,,-1.0720001E-3,19.9999996E-3,
,,,-1.0710001E-3,-1.4800000,,,,,-1.0710001E-3,19.9999996E-3,
,,,-1.0700001E-3,-1.4800000,,,,,-1.0700001E-3,39.99999911E-3,
,,,-1.0690001E-3,-1.4599999,,,,,-1.0690001E-3,19.9999996E-3,
,,,-1.0680001E-3,-1.5000000,,,,,-1.0680001E-3,19.9999996E-3,
,,,-1.0670001E-3,-1.4800000,,,,,-1.0670001E-3,19.9999996E-3,
,,,-1.0660001E-3,-1.5000000,,,,,-1.0660001E-3,19.9999996E-3,
,,,-1.0650001E-3,-1.5000000,,,,,-1.0650001E-3,39.99999911E-3,
,,,-1.0640001E-3,-1.4800000,,,,,-1.0640001E-3,39.99999911E-3,
,,,-1.0630001E-3,-1.5000000,,,,,-1.0630001E-3,19.9999996E-3,
,,,-1.0620001E-3,-1.4800000,,,,,-1.0620001E-3,39.99999911E-3,
,,,-1.0610000E-3,-1.4800000,,,,,-1.0610000E-3,19.9999996E-3,
,,,-1.0600000E-3,-1.4599999,,,,,-1.0600000E-3,39.99999911E-3,
,,,-1.0590001E-3,-1.4599999,,,,,-1.0590001E-3,39.99999911E-3,
,,,-1.0580001E-3,-1.4599999,,,,,-1.0580001E-3,39.99999911E-3,
,,,-1.0570001E-3,-1.4399999,,,,,-1.0570001E-3,19.9999996E-3,
,,,-1.0560001E-3,-1.4599999,,,,,-1.0560001E-3,39.99999911E-3,
,,,-1.0550001E-3,-1.4000000,,,,,-1.0550001E-3,19.9999996E-3,
,,,-1.0540001E-3,-1.4000000,,,,,-1.0540001E-3,39.99999911E-3,
,,,-1.0530001E-3,-1.3800000,,,,,-1.0530001E-3,39.99999911E-3,
,,,-1.0520001E-3,-1.3600000,,,,,-1.0520001E-3,39.99999911E-3,
,,,-1.0510001E-3,-1.3600000,,,,,-1.0510001E-3,59.999998659E-3,
,,,-1.0500001E-3,-1.3199999,,,,,-1.0500001E-3,39.99999911E-3,
,,,-1.0490001E-3,-1.3199999,,,,,-1.0490001E-3,19.9999996E-3,
,,,-1.0480001E-3,-1.2600000,,,,,-1.0480001E-3,39.99999911E-3,
,,,-1.0470001E-3,-1.2400000,,,,,-1.0470001E-3,39.99999911E-3,
,,,-1.0460000E-3,-1.2400000,,,,,-1.0460000E-3,59.999998659E-3,
,,,-1.0450000E-3,-1.1999999,,,,,-1.0450000E-3,39.99999911E-3,
,,,-1.0440001E-3,-1.1799999,,,,,-1.0440001E-3,39.99999911E-3,
,,,-1.0430001E-3,-1.1600000,,,,,-1.0430001E-3,39.99999911E-3,
,,,-1.0420001E-3,-1.1200000,,,,,-1.0420001E-3,39.99999911E-3,
,,,-1.0410001E-3,-1.1000000,,,,,-1.0410001E-3,39.99999911E-3,
,,,-1.0400001E-3,-1.0599999,,,,,-1.0400001E-3,39.99999911E-3,
,,,-1.0390001E-3,-1.0200000,,,,,-1.0390001E-3,39.99999911E-3,
,,,-1.0380001E-3,-979.999959469E-3,,,,,-1.0380001E-3,59.999998659E-3,
,,,-1.0370001E-3,-959.999978542E-3,,,,,-1.0370001E-3,19.9999996E-3,
,,,-1.0360001E-3,-839.999973774E-3,,,,,-1.0360001E-3,59.999998659E-3,
,,,-1.0350001E-3,-879.999995232E-3,,,,,-1.0350001E-3,39.99999911E-3,
,,,-1.0340001E-3,-819.999992847E-3,,,,,-1.0340001E-3,59.999998659E-3,
,,,-1.0330001E-3,-779.999971390E-3,,,,,-1.0330001E-3,59.999998659E-3,
,,,-1.0320001E-3,-740.000009537E-3,,,,,-1.0320001E-3,59.999998659E-3,
,,,-1.0310001E-3,-719.999969006E-3,,,,,-1.0310001E-3,39.99999911E-3,
,,,-1.0300000E-3,-680.000007153E-3,,,,,-1.0300000E-3,39.99999911E-3,
,,,-1.0290002E-3,-620.000004768E-3,,,,,-1.0290002E-3,39.99999911E-3,
,,,-1.0280001E-3,-599.999964237E-3,,,,,-1.0280001E-3,59.999998659E-3,
,,,-1.0270001E-3,-560.000002384E-3,,,,,-1.0270001E-3,39.99999911E-3,
,,,-1.0260001E-3,-519.999980927E-3,,,,,-1.0260001E-3,39.99999911E-3,
,,,-1.0250001E-3,-459.999978542E-3,,,,,-1.0250001E-3,39.99999911E-3,
,,,-1.0240001E-3,-399.99997616E-3,,,,,-1.0240001E-3,39.99999911E-3,
,,,-1.0230001E-3,-359.99998450E-3,,,,,-1.0230001E-3,39.99999911E-3,
,,,-1.0220001E-3,-319.99999285E-3,,,,,-1.0220001E-3,59.999998659E-3,
,,,-1.0210001E-3,-280.00000119E-3,,,,,-1.0210001E-3,39.99999911E-3,
,,,-1.0200001E-3,-239.99999464E-3,,,,,-1.0200001E-3,39.99999911E-3,
,,,-1.0190001E-3,-179.99999225E-3,,,,,-1.0190001E-3,39.99999911E-3,
,,,-1.0180001E-3,-140.0000006E-3,,,,,-1.0180001E-3,39.99999911E-3,
,,,-1.0170001E-3,-99.999994040E-3,,,,,-1.0170001E-3,39.99999911E-3,
,,,-1.0160001E-3,-59.999998659E-3,,,,,-1.0160001E-3,39.99999911E-3,
,,,-1.0150000E-3,0.0,,,,,-1.0150000E-3,39.99999911E-3,
,,,-1.0140002E-3,19.9999996E-3,,,,,-1.0140002E-3,19.9999996E-3,
,,,-1.0130001E-3,79.999998212E-3,,,,,-1.0130001E-3,39.99999911E-3,
,,,-1.0120001E-3,140.0000006E-3,,,,,-1.0120001E-3,39.99999911E-3,
,,,-1.0110001E-3,179.99999225E-3,,,,,-1.0110001E-3,19.9999996E-3,
,,,-1.0100001E-3,239.99999464E-3,,,,,-1.0100001E-3,39.99999911E-3,
,,,-1.0090001E-3,259.99999046E-3,,,,,-1.0090001E-3,39.99999911E-3,
,,,-1.0080001E-3,319.99999285E-3,,,,,-1.0080001E-3,19.9999996E-3,
,,,-1.0070001E-3,379.99999523E-3,,,,,-1.0070001E-3,19.9999996E-3,
,,,-1.0060001E-3,399.99997616E-3,,,,,-1.0060001E-3,19.9999996E-3,
,,,-1.0050001E-3,439.999997616E-3,,,,,-1.0050001E-3,39.99999911E-3,
,,,-1.0040001E-3,500.000000000E-3,,,,,-1.0040001E-3,39.99999911E-3,
,,,-1.0030001E-3,560.000002384E-3,,,,,-1.0030001E-3,19.9999996E-3,
,,,-1.0020001E-3,579.999983311E-3,,,,,-1.0020001E-3,19.9999996E-3,
,,,-1.0010001E-3,620.000004768E-3,,,,,-1.0010001E-3,19.9999996E-3,
,,,-1.0000000E-3,659.999966621E-3,,,,,-1.0000000E-3,19.9999996E-3,
,,,-999.000039883E-6,699.999988079E-3,,,,,-999.000039883E-6,19.9999996E-3,
,,,-998.000148684E-6,759.999990463E-3,,,,,-998.000148684E-6,0.0,
,,,-997.000141069E-6,799.999952316E-3,,,,,-997.000141069E-6,0.0,
,,,-996.000133455E-6,839.999973774E-3,,,,,-996.000133455E-6,0.0,
,,,-995.000125840E-6,919.999957085E-3,,,,,-995.000125840E-6,19.9999996E-3,
,,,-994.000118226E-6,899.999976158E-3,,,,,-994.000118226E-6,0.0,
,,,-993.000110611E-6,939.999997616E-3,,,,,-993.000110611E-6,0.0,
,,,-992.000102997E-6,979.999959469E-3,,,,,-992.000102997E-6,19.9999996E-3,
,,,-991.000095382E-6,1.000000,,,,,-991.000095382E-6,0.0,
,,,-990.000087768E-6,1.0400000,,,,,-990.000087768E-6,0.0,
,,,-989.000080153E-6,1.0599999,,,,,-989.000080153E-6,0.0,
,,,-988.000072539E-6,1.1200000,,,,,-988.000072539E-6,0.0,
,,,-987.000064924E-6,1.1400000,,,,,-987.000064924E-6,0.0,
,,,-986.000057310E-6,1.1600000,,,,,-986.000057310E-6,19.9999996E-3,
,,,-985.000049695E-6,1.1799999,,,,,-985.000049695E-6,0.0,
,,,-984.000042081E-6,1.2200000,,,,,-984.000042081E-6,0.0,
,,,-983.000150882E-6,1.2400000,,,,,-983.000150882E-6,0.0,
,,,-982.000143267E-6,1.2600000,,,,,-982.000143267E-6,19.9999996E-3,
,,,-981.000135653E-6,1.3000000,,,,,-981.000135653E-6,-19.9999996E-3,
,,,-980.000128038E-6,1.3000000,,,,,-980.000128038E-6,0.0,
,,,-979.000120424E-6,1.3199999,,,,,-979.000120424E-6,-19.9999996E-3,
,,,-978.000112809E-6,1.3399999,,,,,-978.000112809E-6,-19.9999996E-3,
,,,-977.000105195E-6,1.3600000,,,,,-977.000105195E-6,0.0,
,,,-976.000097580E-6,1.3800000,,,,,-976.000097580E-6,-19.9999996E-3,
,,,-975.000089966E-6,1.4000000,,,,,-975.000089966E-6,-19.9999996E-3,
,,,-974.000082351E-6,1.4000000,,,,,-974.000082351E-6,-19.9999996E-3,
,,,-973.000074737E-6,1.4399999,,,,,-973.000074737E-6,-19.9999996E-3,
,,,-972.000125330E-6,1.4200000,,,,,-972.000125330E-6,-19.9999996E-3,
,,,-971.000117715E-6,1.4599999,,,,,-971.000117715E-6,-19.9999996E-3,
,,,-970.000110101E-6,1.4599999,,,,,-970.000110101E-6,-19.9999996E-3,
,,,-969.000102486E-6,1.4800000,,,,,-969.000102486E-6,-19.9999996E-3,
,,,-968.000094872E-6,1.4800000,,,,,-968.000094872E-6,0.0,
,,,-967.000087257E-6,1.4599999,,,,,-967.000087257E-6,-19.9999996E-3,
,,,-966.000079643E-6,1.4800000,,,,,-966.000079643E-6,-19.9999996E-3,
,,,-965.000072028E-6,1.4599999,,,,,-965.000072028E-6,0.0,
,,,-964.000122622E-6,1.4800000,,,,,-964.000122622E-6,-19.9999996E-3,
,,,-963.000115007E-6,1.5000000,,,,,-963.000115007E-6,-19.9999996E-3,
,,,-962.000107393E-6,1.4599999,,,,,-962.000107393E-6,-39.99999911E-3,
,,,-961.000099778E-6,1.4599999,,,,,-961.000099778E-6,-39.99999911E-3,
,,,-960.000092164E-6,1.4800000,,,,,-960.000092164E-6,-19.9999996E-3,
,,,-959.000084549E-6,1.4599999,,,,,-959.000084549E-6,-19.9999996E-3,
,,,-958.000076935E-6,1.4399999,,,,,-958.000076935E-6,-19.9999996E-3,
,,,-957.000069320E-6,1.4399999,,,,,-957.000069320E-6,-39.99999911E-3,
,,,-956.000119913E-6,1.4399999,,,,,-956.000119913E-6,-59.999998659E-3,
,,,-955.000112299E-6,1.4000000,,,,,-955.000112299E-6,-39.99999911E-3,
,,,-954.000104684E-6,1.4000000,,,,,-954.000104684E-6,-39.99999911E-3,
,,,-953.000097070E-6,1.4000000,,,,,-953.000097070E-6,-39.99999911E-3,
,,,-952.000089455E-6,1.3800000,,,,,-952.000089455E-6,-39.99999911E-3,
,,,-951.000081841E-6,1.3600000,,,,,-951.000081841E-6,-39.99999911E-3,
,,,-950.000074226E-6,1.3199999,,,,,-950.000074226E-6,-39.99999911E-3,
,,,-949.000124820E-6,1.3199999,,,,,-949.000124820E-6,-39.99999911E-3,
